ripplecounter2/simulation/qsim/ripplecounter2.msim.vcd
$comment
	File created using the following command:
		vcd file ripplecounter2.msim.vcd -direction
$end
$date
	Thu Apr 15 14:45:30 2021
$end
$version
	ModelSim Version 2020.1
$end
$timescale
	1ps
$end

$scope module ripplecounterdecod7segment_vlg_vec_tst $end
$var reg 1 ! CLK $end
$var wire 1 " D0 [0] $end
$var wire 1 # D0 [1] $end
$var wire 1 $ D0 [2] $end
$var wire 1 % D0 [3] $end
$var wire 1 & D0 [4] $end
$var wire 1 ' D0 [5] $end
$var wire 1 ( D0 [6] $end
$var wire 1 ) D1 [0] $end
$var wire 1 * D1 [1] $end
$var wire 1 + D1 [2] $end
$var wire 1 , D1 [3] $end
$var wire 1 - D1 [4] $end
$var wire 1 . D1 [5] $end
$var wire 1 / D1 [6] $end

$scope module i1 $end
$var wire 1 0 gnd $end
$var wire 1 1 vcc $end
$var wire 1 2 unknown $end
$var tri1 1 3 devclrn $end
$var tri1 1 4 devpor $end
$var tri1 1 5 devoe $end
$var wire 1 6 D0[0]~output_o $end
$var wire 1 7 D0[1]~output_o $end
$var wire 1 8 D0[2]~output_o $end
$var wire 1 9 D0[3]~output_o $end
$var wire 1 : D0[4]~output_o $end
$var wire 1 ; D0[5]~output_o $end
$var wire 1 < D0[6]~output_o $end
$var wire 1 = D1[0]~output_o $end
$var wire 1 > D1[1]~output_o $end
$var wire 1 ? D1[2]~output_o $end
$var wire 1 @ D1[3]~output_o $end
$var wire 1 A D1[4]~output_o $end
$var wire 1 B D1[5]~output_o $end
$var wire 1 C D1[6]~output_o $end
$var wire 1 D CLK~input_o $end
$var wire 1 E inst|inst0~0_combout $end
$var wire 1 F inst|inst0~feeder_combout $end
$var wire 1 G inst|inst0~q $end
$var wire 1 H inst|inst1~0_combout $end
$var wire 1 I inst|inst1~feeder_combout $end
$var wire 1 J inst|inst1~q $end
$var wire 1 K inst|inst2~0_combout $end
$var wire 1 L inst|inst2~feeder_combout $end
$var wire 1 M inst|inst2~q $end
$var wire 1 N inst|inst3~0_combout $end
$var wire 1 O inst|inst3~feeder_combout $end
$var wire 1 P inst|inst3~q $end
$var wire 1 Q inst3|g_and~0_combout $end
$var wire 1 R inst3|f_and~0_combout $end
$var wire 1 S inst3|e_and~0_combout $end
$var wire 1 T inst3|d_and~0_combout $end
$var wire 1 U inst3|c_and~0_combout $end
$var wire 1 V inst3|b_and~0_combout $end
$var wire 1 W inst3|a_and~0_combout $end
$var wire 1 X inst|inst4~0_combout $end
$var wire 1 Y inst|inst4~feeder_combout $end
$var wire 1 Z inst|inst4~q $end
$var wire 1 [ inst|inst5~0_combout $end
$var wire 1 \ inst|inst5~feeder_combout $end
$var wire 1 ] inst|inst5~q $end
$var wire 1 ^ inst|inst6~0_combout $end
$var wire 1 _ inst|inst6~feeder_combout $end
$var wire 1 ` inst|inst6~q $end
$var wire 1 a inst|inst7~0_combout $end
$var wire 1 b inst|inst7~q $end
$var wire 1 c inst2|g_and~0_combout $end
$var wire 1 d inst2|f_and~0_combout $end
$var wire 1 e inst2|e_and~0_combout $end
$var wire 1 f inst2|d_and~0_combout $end
$var wire 1 g inst2|c_and~0_combout $end
$var wire 1 h inst2|b_and~0_combout $end
$var wire 1 i inst2|a_and~0_combout $end
$upscope $end
$upscope $end
$enddefinitions $end
#0
$dumpvars
1!
x(
x'
x&
x%
x$
x#
x"
x/
x.
x-
x,
x+
x*
x)
00
11
x2
13
14
15
x6
x7
x8
x9
x:
x;
x<
x=
x>
x?
x@
xA
xB
xC
1D
xE
xF
0G
xH
xI
0J
xK
xL
0M
xN
xO
0P
xQ
xR
xS
xT
xU
xV
xW
xX
xY
0Z
x[
x\
0]
x^
x_
0`
1a
0b
xc
xd
xe
xf
xg
xh
xi
$end
#762
1h
#769
1f
#772
1e
#774
1g
#775
1i
#797
1H
#815
1[
#863
1V
#876
1N
#881
1X
#886
1^
#889
0c
#890
1d
#991
0Q
#993
1U
#1155
1K
#1186
1E
#1490
1I
#1516
1\
#1524
1R
#1538
1T
#1540
1W
#1561
1S
#1574
1Y
#1577
1O
#1580
1_
#2085
1L
#2226
1F
#4065
1B
1.
#4098
1A
1-
#4131
1:
1&
#4220
06
0"
#4306
1>
1*
#4397
1@
1,
#4403
1?
1+
#4489
1<
1(
#4720
1C
1/
#4960
17
1#
#4990
18
1$
#5171
19
1%
#5270
1;
1'
#6020
0=
0)
#10000
0!
#10761
0D
#20000
1!
#20596
1D
#21629
1G
#22770
0E
#23122
0R
#23133
0W
#23134
0T
#23146
0S
#23827
0F
#26062
0<
0(
#26553
08
0$
#26555
07
0#
#26750
09
0%
#30000
0!
#30761
0D
#40000
1!
#40596
1D
#41629
0G
#42701
1J
#42815
1E
#43153
1R
#43167
1T
#43169
1W
#43190
1S
#43446
0H
#43616
0U
#43618
1Q
#43622
0R
#43855
1F
#44187
0I
#46118
1<
1(
#46619
18
1$
#46764
0:
0&
#46800
19
1%
#46859
16
1"
#50000
0!
#50761
0D
#60000
1!
#60596
1D
#61629
1G
#62770
0E
#63109
1U
#63146
0S
#63827
0F
#66247
1:
1&
#66553
08
0$
#70000
0!
#70761
0D
#80000
1!
#80596
1D
#81629
0G
#82701
0J
#82815
1E
#83135
0U
#83190
1S
#83498
1H
#83692
0Q
#83694
1U
#83696
1R
#83855
1F
#84185
1M
#84191
1I
#84972
0W
#84973
0T
#84975
0S
#84985
1Q
#85274
0K
#86236
0L
#87132
17
1#
#87901
0<
0(
#88589
09
0%
#90000
0!
#90761
0D
#100000
1!
#100596
1D
#101629
1G
#102770
0E
#103118
1T
#103121
1W
#103135
0V
#103827
0F
#106070
1<
1(
#106751
19
1%
#107607
0;
0'
#110000
0!
#110761
0D
#120000
1!
#120596
1D
#121629
0G
#122701
1J
#122815
1E
#123171
1V
#123181
0W
#123183
0T
#123446
0H
#123617
1T
#123618
0V
#123619
1S
#123620
1W
#123855
1F
#124187
0I
#127048
18
1$
#130000
0!
#130761
0D
#140000
1!
#140596
1D
#141629
1G
#142770
0E
#143078
0Q
#143122
0R
#143123
1V
#143134
0T
#143146
0S
#143827
0F
#146307
06
0"
#146553
08
0$
#146555
07
0#
#146750
09
0%
#147530
1;
1'
#150000
0!
#150761
0D
#160000
1!
#160596
1D
#161629
0G
#162701
0J
#162815
1E
#163120
1Q
#163153
1R
#163167
1T
#163183
0V
#163190
1S
#163498
1H
#163692
0S
#163695
0T
#163696
1V
#163698
0W
#163855
1F
#164185
0M
#164191
1I
#165041
0Q
#165047
1W
#165050
1T
#165051
1S
#165257
1P
#165340
1K
#166062
0N
#166208
1Q
#166270
1L
#166589
17
1#
#166805
0O
#168480
18
1$
#168683
19
1%
#169449
16
1"
#170000
0!
#170761
0D
#180000
1!
#180596
1D
#181629
1G
#182770
0E
#183146
0S
#183827
0F
#186553
08
0$
#190000
0!
#190761
0D
#200000
1!
#200596
1D
#201629
0G
#202701
1J
#202815
1E
#203190
1S
#203446
0H
#203616
0T
#203855
1F
#204187
0I
#206619
18
1$
#207232
09
0%
#210000
0!
#210761
0D
#220000
1!
#220596
1D
#221629
1G
#222770
0E
#223118
1T
#223133
0W
#223135
0V
#223827
0F
#226062
0<
0(
#226751
19
1%
#227607
0;
0'
#230000
0!
#230761
0D
#240000
1!
#240596
1D
#241629
0G
#242701
0J
#242815
1E
#243169
1W
#243171
1V
#243183
0T
#243498
1H
#243696
1T
#243855
1F
#244185
1M
#244191
1I
#244972
0V
#244973
0U
#244975
0Q
#245274
0K
#246118
1<
1(
#246236
0L
#248121
0:
0&
#248204
06
0"
#250000
0!
#250761
0D
#260000
1!
#260596
1D
#261629
1G
#262770
0E
#263071
1Q
#263109
1U
#263122
0R
#263123
1V
#263133
0W
#263827
0F
#266062
0<
0(
#266247
1:
1&
#266312
16
1"
#266555
07
0#
#267530
1;
1'
#270000
0!
#270761
0D
#280000
1!
#280596
1D
#281629
0G
#282701
1J
#282815
1E
#283127
0Q
#283135
0U
#283153
1R
#283169
1W
#283183
0V
#283446
0H
#283618
1Q
#283855
1F
#284187
0I
#286118
1<
1(
#286283
0:
0&
#286589
17
1#
#287655
0;
0'
#290000
0!
#290761
0D
#300000
1!
#300596
1D
#301629
1G
#302770
0E
#303134
0T
#303827
0F
#306750
09
0%
#310000
0!
#310761
0D
#320000
1!
#320596
1D
#321629
0G
#322701
0J
#322815
1E
#323167
1T
#323498
1H
#323692
0Q
#323855
1F
#324185
0M
#324191
1I
#325048
1V
#325050
1U
#325051
1Q
#325257
0P
#325340
1K
#326133
1N
#326270
1L
#326296
0Q
#326407
1Z
#326800
19
1%
#326834
1O
#327101
0d
#327103
0f
#327105
0i
#327106
0e
#327242
0X
#327978
0Y
#328188
1:
1&
#329455
1;
1'
#329525
06
0"
#330000
0!
#330514
0>
0*
#330698
0?
0+
#330700
0@
0,
#330761
0D
#331050
0C
0/
#340000
1!
#340596
1D
#341629
1G
#342770
0E
#343122
0R
#343133
0W
#343134
0T
#343146
0S
#343827
0F
#346062
0<
0(
#346553
08
0$
#346555
07
0#
#346750
09
0%
#350000
0!
#350761
0D
#360000
1!
#360596
1D
#361629
0G
#362701
1J
#362815
1E
#363153
1R
#363167
1T
#363169
1W
#363190
1S
#363446
0H
#363616
0U
#363618
1Q
#363622
0R
#363855
1F
#364187
0I
#366118
1<
1(
#366619
18
1$
#366764
0:
0&
#366800
19
1%
#366859
16
1"
#370000
0!
#370761
0D
#380000
1!
#380596
1D
#381629
1G
#382770
0E
#383109
1U
#383146
0S
#383827
0F
#386247
1:
1&
#386553
08
0$
#390000
0!
#390761
0D
#400000
1!
#400596
1D
#401629
0G
#402701
0J
#402815
1E
#403135
0U
#403190
1S
#403498
1H
#403692
0Q
#403694
1U
#403696
1R
#403855
1F
#404185
1M
#404191
1I
#404972
0W
#404973
0T
#404975
0S
#404985
1Q
#405274
0K
#406236
0L
#407132
17
1#
#407901
0<
0(
#408589
09
0%
#410000
0!
#410761
0D
#420000
1!
#420596
1D
#421629
1G
#422770
0E
#423118
1T
#423121
1W
#423135
0V
#423827
0F
#426070
1<
1(
#426751
19
1%
#427607
0;
0'
#430000
0!
#430761
0D
#440000
1!
#440596
1D
#441629
0G
#442701
1J
#442815
1E
#443171
1V
#443181
0W
#443183
0T
#443446
0H
#443617
1T
#443618
0V
#443619
1S
#443620
1W
#443855
1F
#444187
0I
#447048
18
1$
#450000
0!
#450761
0D
#460000
1!
#460596
1D
#461629
1G
#462770
0E
#463078
0Q
#463122
0R
#463123
1V
#463134
0T
#463146
0S
#463827
0F
#466307
06
0"
#466553
08
0$
#466555
07
0#
#466750
09
0%
#467530
1;
1'
#470000
0!
#470761
0D
#480000
1!
#480596
1D
#481629
0G
#482701
0J
#482815
1E
#483120
1Q
#483153
1R
#483167
1T
#483183
0V
#483190
1S
#483498
1H
#483692
0S
#483695
0T
#483696
1V
#483698
0W
#483855
1F
#484185
0M
#484191
1I
#485041
0Q
#485047
1W
#485050
1T
#485051
1S
#485257
1P
#485340
1K
#486062
0N
#486208
1Q
#486270
1L
#486589
17
1#
#486805
0O
#488480
18
1$
#488683
19
1%
#489449
16
1"
#490000
0!
#490761
0D
#500000
1!
#500596
1D
#501629
1G
#502770
0E
#503146
0S
#503827
0F
#506553
08
0$
#510000
0!
#510761
0D
#520000
1!
#520596
1D
#521629
0G
#522701
1J
#522815
1E
#523190
1S
#523446
0H
#523616
0T
#523855
1F
#524187
0I
#526619
18
1$
#527232
09
0%
#530000
0!
#530761
0D
#540000
1!
#540596
1D
#541629
1G
#542770
0E
#543118
1T
#543133
0W
#543135
0V
#543827
0F
#546062
0<
0(
#546751
19
1%
#547607
0;
0'
#550000
0!
#550761
0D
#560000
1!
#560596
1D
#561629
0G
#562701
0J
#562815
1E
#563169
1W
#563171
1V
#563183
0T
#563498
1H
#563696
1T
#563855
1F
#564185
1M
#564191
1I
#564972
0V
#564973
0U
#564975
0Q
#565274
0K
#566118
1<
1(
#566236
0L
#568121
0:
0&
#568204
06
0"
#570000
0!
#570761
0D
#580000
1!
#580596
1D
#581629
1G
#582770
0E
#583071
1Q
#583109
1U
#583122
0R
#583123
1V
#583133
0W
#583827
0F
#586062
0<
0(
#586247
1:
1&
#586312
16
1"
#586555
07
0#
#587530
1;
1'
#590000
0!
#590761
0D
#600000
1!
#600596
1D
#601629
0G
#602701
1J
#602815
1E
#603127
0Q
#603135
0U
#603153
1R
#603169
1W
#603183
0V
#603446
0H
#603618
1Q
#603855
1F
#604187
0I
#606118
1<
1(
#606283
0:
0&
#606589
17
1#
#607655
0;
0'
#610000
0!
#610761
0D
#620000
1!
#620596
1D
#621629
1G
#622770
0E
#623134
0T
#623827
0F
#626750
09
0%
#630000
0!
#630761
0D
#640000
1!
#640596
1D
#641629
0G
#642701
0J
#642815
1E
#643167
1T
#643498
1H
#643692
0Q
#643855
1F
#644185
0M
#644191
1I
#645048
1V
#645050
1U
#645051
1Q
#645257
0P
#645340
1K
#646133
1N
#646270
1L
#646296
0Q
#646407
0Z
#646800
19
1%
#646834
1O
#647174
1d
#647176
1f
#647179
1e
#647182
1i
#647288
1X
#647488
1]
#647981
1Y
#648188
1:
1&
#648251
0[
#648302
1c
#648307
0g
#648315
0d
#648993
0\
#649455
1;
1'
#649525
06
0"
#650000
0!
#650761
0D
#650804
1@
1,
#650810
1?
1+
#651127
1C
1/
#651636
0A
0-
#653417
1=
1)
#660000
1!
#660596
1D
#661629
1G
#662770
0E
#663122
0R
#663133
0W
#663134
0T
#663146
0S
#663827
0F
#666062
0<
0(
#666553
08
0$
#666555
07
0#
#666750
09
0%
#670000
0!
#670761
0D
#680000
1!
#680596
1D
#681629
0G
#682701
1J
#682815
1E
#683153
1R
#683167
1T
#683169
1W
#683190
1S
#683446
0H
#683616
0U
#683618
1Q
#683622
0R
#683855
1F
#684187
0I
#686118
1<
1(
#686619
18
1$
#686764
0:
0&
#686800
19
1%
#686859
16
1"
#690000
0!
#690761
0D
#700000
1!
#700596
1D
#701629
1G
#702770
0E
#703109
1U
#703146
0S
#703827
0F
#706247
1:
1&
#706553
08
0$
#710000
0!
#710761
0D
#720000
1!
#720596
1D
#721629
0G
#722701
0J
#722815
1E
#723135
0U
#723190
1S
#723498
1H
#723692
0Q
#723694
1U
#723696
1R
#723855
1F
#724185
1M
#724191
1I
#724972
0W
#724973
0T
#724975
0S
#724985
1Q
#725274
0K
#726236
0L
#727132
17
1#
#727901
0<
0(
#728589
09
0%
#730000
0!
#730761
0D
#740000
1!
#740596
1D
#741629
1G
#742770
0E
#743118
1T
#743121
1W
#743135
0V
#743827
0F
#746070
1<
1(
#746751
19
1%
#747607
0;
0'
#750000
0!
#750761
0D
#760000
1!
#760596
1D
#761629
0G
#762701
1J
#762815
1E
#763171
1V
#763181
0W
#763183
0T
#763446
0H
#763617
1T
#763618
0V
#763619
1S
#763620
1W
#763855
1F
#764187
0I
#767048
18
1$
#770000
0!
#770761
0D
#780000
1!
#780596
1D
#781629
1G
#782770
0E
#783078
0Q
#783122
0R
#783123
1V
#783134
0T
#783146
0S
#783827
0F
#786307
06
0"
#786553
08
0$
#786555
07
0#
#786750
09
0%
#787530
1;
1'
#790000
0!
#790761
0D
#800000
1!
#800596
1D
#801629
0G
#802701
0J
#802815
1E
#803120
1Q
#803153
1R
#803167
1T
#803183
0V
#803190
1S
#803498
1H
#803692
0S
#803695
0T
#803696
1V
#803698
0W
#803855
1F
#804185
0M
#804191
1I
#805041
0Q
#805047
1W
#805050
1T
#805051
1S
#805257
1P
#805340
1K
#806062
0N
#806208
1Q
#806270
1L
#806589
17
1#
#806805
0O
#808480
18
1$
#808683
19
1%
#809449
16
1"
#810000
0!
#810761
0D
#820000
1!
#820596
1D
#821629
1G
#822770
0E
#823146
0S
#823827
0F
#826553
08
0$
#830000
0!
#830761
0D
#840000
1!
#840596
1D
#841629
0G
#842701
1J
#842815
1E
#843190
1S
#843446
0H
#843616
0T
#843855
1F
#844187
0I
#846619
18
1$
#847232
09
0%
#850000
0!
#850761
0D
#860000
1!
#860596
1D
#861629
1G
#862770
0E
#863118
1T
#863133
0W
#863135
0V
#863827
0F
#866062
0<
0(
#866751
19
1%
#867607
0;
0'
#870000
0!
#870761
0D
#880000
1!
#880596
1D
#881629
0G
#882701
0J
#882815
1E
#883169
1W
#883171
1V
#883183
0T
#883498
1H
#883696
1T
#883855
1F
#884185
1M
#884191
1I
#884972
0V
#884973
0U
#884975
0Q
#885274
0K
#886118
1<
1(
#886236
0L
#888121
0:
0&
#888204
06
0"
#890000
0!
#890761
0D
#900000
1!
#900596
1D
#901629
1G
#902770
0E
#903071
1Q
#903109
1U
#903122
0R
#903123
1V
#903133
0W
#903827
0F
#906062
0<
0(
#906247
1:
1&
#906312
16
1"
#906555
07
0#
#907530
1;
1'
#910000
0!
#910761
0D
#920000
1!
#920596
1D
#921629
0G
#922701
1J
#922815
1E
#923127
0Q
#923135
0U
#923153
1R
#923169
1W
#923183
0V
#923446
0H
#923618
1Q
#923855
1F
#924187
0I
#926118
1<
1(
#926283
0:
0&
#926589
17
1#
#927655
0;
0'
#930000
0!
#930761
0D
#940000
1!
#940596
1D
#941629
1G
#942770
0E
#943134
0T
#943827
0F
#946750
09
0%
#950000
0!
#950761
0D
#960000
1!
#960596
1D
#961629
0G
#962701
0J
#962815
1E
#963167
1T
#963498
1H
#963692
0Q
#963855
1F
#964185
0M
#964191
1I
#965048
1V
#965050
1U
#965051
1Q
#965257
0P
#965340
1K
#966133
1N
#966270
1L
#966296
0Q
#966407
1Z
#966800
19
1%
#966834
1O
#967106
0e
#967109
1g
#967242
0X
#967978
0Y
#968188
1:
1&
#969455
1;
1'
#969525
06
0"
#970000
0!
#970433
1A
1-
#970698
0?
0+
#970761
0D
#980000
1!
#980596
1D
#981629
1G
#982770
0E
#983122
0R
#983133
0W
#983134
0T
#983146
0S
#983827
0F
#986062
0<
0(
#986553
08
0$
#986555
07
0#
#986750
09
0%
#990000
0!
#990761
0D
