unidade_de_controle_neander/simulation/qsim/unidade_de_controle_neander.msim.vcd
$comment
	File created using the following command:
		vcd file unidade_de_controle_neander.msim.vcd -direction
$end
$date
	Fri May 21 02:53:38 2021
$end
$version
	ModelSim Version 2020.1
$end
$timescale
	1ps
$end

$scope module unidade_de_controle_neander_vlg_vec_tst $end
$var reg 1 ! CLK $end
$var reg 1 " count $end
$var reg 4 # INSTRUCAO [3:0] $end
$var reg 1 $ sinalN $end
$var reg 1 % sinalZ $end
$var wire 1 & cargaAC $end
$var wire 1 ' cargaNZ $end
$var wire 1 ( cargaPC $end
$var wire 1 ) cargaRDM $end
$var wire 1 * cargaREM $end
$var wire 1 + cargaRI $end
$var wire 1 , gotot0 $end
$var wire 1 - HALT $end
$var wire 1 . incPC $end
$var wire 1 / Read $end
$var wire 1 0 sel $end
$var wire 1 1 ULA_ADD $end
$var wire 1 2 ULA_AND $end
$var wire 1 3 ULA_NOT $end
$var wire 1 4 ULA_OR $end
$var wire 1 5 ULA_Y $end
$var wire 1 6 Write $end

$scope module i1 $end
$var wire 1 7 gnd $end
$var wire 1 8 vcc $end
$var wire 1 9 unknown $end
$var tri1 1 : devclrn $end
$var tri1 1 ; devpor $end
$var tri1 1 < devoe $end
$var wire 1 = cargaREM~output_o $end
$var wire 1 > incPC~output_o $end
$var wire 1 ? cargaRI~output_o $end
$var wire 1 @ sel~output_o $end
$var wire 1 A cargaRDM~output_o $end
$var wire 1 B Read~output_o $end
$var wire 1 C Write~output_o $end
$var wire 1 D ULA_Y~output_o $end
$var wire 1 E cargaPC~output_o $end
$var wire 1 F gotot0~output_o $end
$var wire 1 G ULA_ADD~output_o $end
$var wire 1 H ULA_OR~output_o $end
$var wire 1 I ULA_AND~output_o $end
$var wire 1 J ULA_NOT~output_o $end
$var wire 1 K cargaAC~output_o $end
$var wire 1 L cargaNZ~output_o $end
$var wire 1 M HALT~output_o $end
$var wire 1 N INSTRUCAO[1]~input_o $end
$var wire 1 O INSTRUCAO[2]~input_o $end
$var wire 1 P INSTRUCAO[3]~input_o $end
$var wire 1 Q JN_N~0_combout $end
$var wire 1 R INSTRUCAO[0]~input_o $end
$var wire 1 S sinalZ~input_o $end
$var wire 1 T sinalN~input_o $end
$var wire 1 U instZZZ~0_combout $end
$var wire 1 V instZZZ~1_combout $end
$var wire 1 W OR8inst~1_combout $end
$var wire 1 X CLK~input_o $end
$var wire 1 Y CLK~inputclkctrl_outclk $end
$var wire 1 Z count~input_o $end
$var wire 1 [ instCONTADOR|inst~0_combout $end
$var wire 1 \ instCONTADOR|inst~q $end
$var wire 1 ] instCONTADOR|inst4~0_combout $end
$var wire 1 ^ instCONTADOR|inst4~q $end
$var wire 1 _ instCONTADOR|inst6~0_combout $end
$var wire 1 ` instCONTADOR|inst6~q $end
$var wire 1 a t3AND8inst~0_combout $end
$var wire 1 b OR8inst~0_combout $end
$var wire 1 c instSAD~0_combout $end
$var wire 1 d instSAD~1_combout $end
$var wire 1 e instZZZ~2_combout $end
$var wire 1 f inst19~0_combout $end
$var wire 1 g instZZZ~3_combout $end
$var wire 1 h TEMPORIZADORinst|inst5~combout $end
$var wire 1 i t5AND5inst~0_combout $end
$var wire 1 j inst125|inst~combout $end
$var wire 1 k inst17~0_combout $end
$var wire 1 l OR8inst~2_combout $end
$var wire 1 m inst18~0_combout $end
$var wire 1 n inst18~combout $end
$var wire 1 o inst22~combout $end
$var wire 1 p TEMPORIZADORinst|inst2~combout $end
$var wire 1 q inst34~0_combout $end
$var wire 1 r inst30~combout $end
$var wire 1 s inst39~2_combout $end
$var wire 1 t inst39~4_combout $end
$var wire 1 u inst39~3_combout $end
$var wire 1 v inst39~7_combout $end
$var wire 1 w inst39~5_combout $end
$var wire 1 x inst39~6_combout $end
$var wire 1 y inst125|inst5~0_combout $end
$var wire 1 z inst31~combout $end
$var wire 1 { inst32~combout $end
$var wire 1 | JN_N~1_combout $end
$var wire 1 } inst33~combout $end
$var wire 1 ~ inst34~1_combout $end
$var wire 1 !! inst35~combout $end
$var wire 1 "! instAW~0_combout $end
$var wire 1 #! instAW~1_combout $end
$upscope $end
$upscope $end
$enddefinitions $end
#0
$dumpvars
0!
1"
b1 #
0$
0%
x&
x'
x(
x)
x*
x+
x,
x-
x.
x/
x0
x1
x2
x3
x4
x5
x6
07
18
x9
1:
1;
1<
x=
x>
x?
x@
xA
xB
xC
xD
xE
xF
xG
xH
xI
xJ
xK
xL
xM
0N
0O
0P
xQ
1R
0S
0T
xU
xV
xW
0X
xY
1Z
x[
0\
x]
0^
x_
0`
xa
xb
xc
xd
xe
xf
xg
xh
xi
xj
xk
xl
xm
xn
xo
xp
xq
xr
xs
xt
xu
xv
xw
xx
xy
xz
x{
x|
x}
x~
x!!
x"!
x#!
$end
#158
0Y
#505
0_
#509
0a
#511
0]
#528
1h
#719
0m
#723
0w
#734
0s
#753
0i
#758
0f
#778
0e
#838
0o
0p
0z
#840
0k
#862
0x
#957
1c
#1213
0~
#1294
0n
#1324
0"!
0Q
#1327
1V
#1371
1d
#1414
0#!
#1468
0}
#1539
0g
#1567
0{
#1726
0r
#1866
1W
#2048
0!!
#2919
1[
#3106
0b
#3215
0u
#3217
0q
#3392
0U
#3405
1t
#3526
1l
#3635
0j
#3665
1y
#3672
1|
#3682
0?
0+
#3826
0v
#4010
0E
0(
#4013
0@
00
#4021
0F
0,
#4191
0C
06
#4354
0G
01
#4389
0A
0)
#4629
0B
0/
#4639
0J
03
#4680
0>
0.
#4719
1=
1*
#4852
0I
02
#5000
1!
#5440
0H
04
#5596
1X
#5776
1Y
#5792
0K
0L
0'
0&
#6081
0M
0-
#6241
0D
05
#7249
1\
#7618
0[
#7672
1]
#7894
1m
#7923
1e
#7934
0c
#8380
0d
#8451
1n
#8650
1g
#10000
0!
#10761
0X
#10919
0Y
#11705
0=
0*
#11821
1>
1.
#11828
1B
1/
#15000
1!
#15596
1X
#15776
1Y
#17249
0\
1^
#17602
1[
#17618
0]
#17672
0m
#17673
0e
#17677
1a
#17770
1]
#17977
0h
#17982
0a
#18247
0n
#18434
0g
#20000
0!
#20761
0X
#20919
0Y
#21099
1?
1+
#21575
0>
0.
#21582
0B
0/
#25000
1!
#25596
1X
#25776
1Y
#27249
1\
#27618
0[
#27662
0]
#27671
1_
#27871
1h
#27873
1a
#27895
1w
#28455
1d
#30000
0!
#30761
0X
#30919
0Y
#31025
0?
0+
#31803
1=
1*
#35000
1!
#35596
1X
#35776
1Y
#37249
0\
0^
1`
#37602
1]
1[
#37618
0_
#37760
0]
#37764
1_
#37897
0a
#37902
1x
#38021
0w
#38049
1f
#38469
0x
#38533
0d
#38625
1n
#38639
1g
#40000
0!
#40761
0X
#40919
0Y
#41810
1>
1.
#41858
0=
0*
#42002
1B
1/
#45000
1!
#45596
1X
#45776
1Y
#47249
1\
#47618
0[
#47672
1]
#47910
1i
#47918
1c
#47942
0f
#48332
1d
#48552
0g
#48575
0n
#50000
0!
#50761
0X
#50919
0Y
#51191
1@
10
#51680
1=
1*
#51693
0>
0.
#51910
0B
0/
#55000
1!
#55596
1X
#55776
1Y
#57249
0\
1^
#57602
1[
#57618
0]
#57770
1]
#57953
0c
#57955
0i
#58233
1k
#58399
0d
#60000
0!
#60761
0X
#60919
0Y
#61215
0@
00
#61724
0=
0*
#61801
1A
1)
#65000
1!
#65596
1X
#65776
1Y
#67249
1\
#67618
0[
#67661
0_
#67662
0]
#67895
1w
#68167
1p
#68168
0k
1o
#68311
1x
#70000
0!
#70761
0X
#70919
0Y
#71481
1F
1,
#71535
1C
16
#71717
0A
0)
#75000
1!
#75596
1X
#75776
1Y
#77249
0\
0^
0`
#77602
1_
1]
1[
#77754
0_
#77760
0]
#78001
0x
#78021
0w
#78087
0o
0p
#78206
1c
#78620
1d
#80000
b11 #
b10 #
0!
#80596
1N
#80761
0X
0R
#80919
0Y
#81160
0F
0,
#81440
0C
06
#81968
1=
1*
#83845
0t
#83859
0l
#83982
1j
#84014
0|
#84227
1q
#84380
1t
#85000
1!
#85596
1X
#85776
1Y
#87249
1\
#87618
0[
#87672
1]
#87894
1m
#87923
1e
#87934
0c
#88380
0d
#88451
1n
#88650
1g
#90000
0!
#90761
0X
#90919
0Y
#91705
0=
0*
#91821
1>
1.
#91828
1B
1/
#95000
1!
#95596
1X
#95776
1Y
#97249
0\
1^
#97602
1[
#97618
0]
#97672
0m
#97673
0e
#97677
1a
#97770
1]
#97977
0h
#97982
0a
#98247
0n
#98434
0g
#100000
0!
#100761
0X
#100919
0Y
#101099
1?
1+
#101575
0>
0.
#101582
0B
0/
#105000
1!
#105596
1X
#105776
1Y
#107249
1\
#107618
0[
#107662
0]
#107671
1_
#107871
1h
#107873
1a
#107895
1w
#108455
1d
#110000
0!
#110761
0X
#110919
0Y
#111025
0?
0+
#111803
1=
1*
#115000
1!
#115596
1X
#115776
1Y
#117249
0\
0^
1`
#117602
1]
1[
#117618
0_
#117760
0]
#117764
1_
#117897
0a
#117902
1x
#118021
0w
#118049
1f
#118469
0x
#118533
0d
#118625
1n
#118639
1g
#120000
0!
#120761
0X
#120919
0Y
#121810
1>
1.
#121858
0=
0*
#122002
1B
1/
#125000
1!
#125596
1X
#125776
1Y
#127249
1\
#127618
0[
#127672
1]
#127910
1i
#127918
1c
#127942
0f
#128332
1d
#128552
0g
#128575
0n
#130000
0!
#130761
0X
#130919
0Y
#131191
1@
10
#131680
1=
1*
#131693
0>
0.
#131910
0B
0/
#135000
1!
#135596
1X
#135776
1Y
#137249
0\
1^
#137602
1[
#137618
0]
#137770
1]
#137953
0c
#137955
0i
#137970
1m
#138399
0d
#138527
1n
#140000
0!
#140761
0X
#140919
0Y
#141215
0@
00
#141724
0=
0*
#141904
1B
1/
#145000
1!
#145596
1X
#145776
1Y
#147249
1\
#147618
0[
#147661
0_
#147662
0]
#147892
0m
#147895
1w
#148167
1p
#148311
1x
#148467
0n
#148492
1!!
#149022
1r
#150000
0!
#150761
0X
#150919
0Y
#151481
1F
1,
#151802
0B
0/
#152227
1K
1L
1'
1&
#153466
1D
15
#155000
1!
#155596
1X
#155776
1Y
#157249
0\
0^
0`
#157602
1_
1]
1[
#157754
0_
#157760
0]
#158001
0x
#158021
0w
#158087
0p
#158206
1c
#158426
0!!
#158620
1d
#158975
0r
#160000
b11 #
0!
#160596
1R
#160761
0X
#160919
0Y
#161160
0F
0,
#161968
1=
1*
#162170
0K
0L
0'
0&
#163490
0D
05
#163811
0y
#163813
0q
#163973
0t
#165000
1!
#165596
1X
#165776
1Y
#167249
1\
#167618
0[
#167672
1]
#167894
1m
#167923
1e
#167934
0c
#168380
0d
#168451
1n
#168650
1g
#170000
0!
#170761
0X
#170919
0Y
#171705
0=
0*
#171821
1>
1.
#171828
1B
1/
#175000
1!
#175596
1X
#175776
1Y
#177249
0\
1^
#177602
1[
#177618
0]
#177672
0m
#177673
0e
#177677
1a
#177770
1]
#177977
0h
#177982
0a
#178247
0n
#178434
0g
#180000
0!
#180761
0X
#180919
0Y
#181099
1?
1+
#181575
0>
0.
#181582
0B
0/
#185000
1!
#185596
1X
#185776
1Y
#187249
1\
#187618
0[
#187662
0]
#187671
1_
#187871
1h
#187873
1a
#187895
1w
#188455
1d
#190000
0!
#190761
0X
#190919
0Y
#191025
0?
0+
#191803
1=
1*
#195000
1!
#195596
1X
#195776
1Y
#197249
0\
0^
1`
#197602
1]
1[
#197618
0_
#197760
0]
#197764
1_
#197897
0a
#197902
1x
#198021
0w
#198049
1f
#198469
0x
#198533
0d
#198625
1n
#198639
1g
#200000
0!
#200761
0X
#200919
0Y
#201810
1>
1.
#201858
0=
0*
#202002
1B
1/
#205000
1!
#205596
1X
#205776
1Y
#207249
1\
#207618
0[
#207672
1]
#207910
1i
#207918
1c
#207942
0f
#208332
1d
#208552
0g
#208575
0n
#210000
0!
#210761
0X
#210919
0Y
#211191
1@
10
#211680
1=
1*
#211693
0>
0.
#211910
0B
0/
#215000
1!
#215596
1X
#215776
1Y
#217249
0\
1^
#217602
1[
#217618
0]
#217770
1]
#217953
0c
#217955
0i
#217970
1m
#218399
0d
#218527
1n
#220000
0!
#220761
0X
#220919
0Y
#221215
0@
00
#221724
0=
0*
#221904
1B
1/
#225000
1!
#225596
1X
#225776
1Y
#227249
1\
#227618
0[
#227661
0_
#227662
0]
#227892
0m
#227895
1w
#228167
1p
#228168
1z
#228311
1x
#228467
0n
#228492
1!!
#230000
0!
#230761
0X
#230919
0Y
#231481
1F
1,
#231730
1G
11
#231802
0B
0/
#232227
1K
1L
1'
1&
#235000
1!
#235596
1X
#235776
1Y
#237249
0\
0^
0`
#237602
1_
1]
1[
#237754
0_
#237760
0]
#238001
0x
#238021
0w
#238087
0p
0z
#238206
1c
#238426
0!!
#238620
1d
#240000
b111 #
b101 #
b100 #
0!
#240596
1O
#240761
0X
0N
0R
#240919
0Y
#241160
0F
0,
#241603
0G
01
#241950
1"!
#241968
1=
1*
#242170
0K
0L
0'
0&
#242216
1b
#242234
1y
#242277
1l
#243922
0b
#243924
0"!
#244227
1q
#244285
0l
#245000
1!
#245596
1X
#245776
1Y
#247249
1\
#247618
0[
#247672
1]
#247894
1m
#247923
1e
#247934
0c
#248380
0d
#248451
1n
#248650
1g
#250000
0!
#250761
0X
#250919
0Y
#251705
0=
0*
#251821
1>
1.
#251828
1B
1/
#255000
1!
#255596
1X
#255776
1Y
#257249
0\
1^
#257602
1[
#257618
0]
#257672
0m
#257673
0e
#257677
1a
#257770
1]
#257977
0h
#257982
0a
#258247
0n
#258434
0g
#260000
0!
#260761
0X
#260919
0Y
#261099
1?
1+
#261575
0>
0.
#261582
0B
0/
#265000
1!
#265596
1X
#265776
1Y
#267249
1\
#267618
0[
#267662
0]
#267671
1_
#267871
1h
#267873
1a
#267895
1w
#268455
1d
#270000
0!
#270761
0X
#270919
0Y
#271025
0?
0+
#271803
1=
1*
#275000
1!
#275596
1X
#275776
1Y
#277249
0\
0^
1`
#277602
1]
1[
#277618
0_
#277760
0]
#277764
1_
#277897
0a
#277902
1x
#278021
0w
#278049
1f
#278469
0x
#278533
0d
#278625
1n
#278639
1g
#280000
0!
#280761
0X
#280919
0Y
#281810
1>
1.
#281858
0=
0*
#282002
1B
1/
#285000
1!
#285596
1X
#285776
1Y
#287249
1\
#287618
0[
#287672
1]
#287910
1i
#287918
1c
#287942
0f
#288332
1d
#288552
0g
#288575
0n
#290000
0!
#290761
0X
#290919
0Y
#291191
1@
10
#291680
1=
1*
#291693
0>
0.
#291910
0B
0/
#295000
1!
#295596
1X
#295776
1Y
#297249
0\
1^
#297602
1[
#297618
0]
#297770
1]
#297953
0c
#297955
0i
#297970
1m
#298399
0d
#298527
1n
#300000
0!
#300761
0X
#300919
0Y
#301215
0@
00
#301724
0=
0*
#301904
1B
1/
#305000
1!
#305596
1X
#305776
1Y
#307249
1\
#307618
0[
#307661
0_
#307662
0]
#307892
0m
#307895
1w
#308167
1p
#308311
1x
#308467
0n
#308492
1!!
#309020
1{
#310000
0!
#310761
0X
#310919
0Y
#311481
1F
1,
#311802
0B
0/
#312227
1K
1L
1'
1&
#312848
1H
14
#315000
1!
#315596
1X
#315776
1Y
#317249
0\
0^
0`
#317602
1_
1]
1[
#317754
0_
#317760
0]
#318001
0x
#318021
0w
#318087
0p
#318206
1c
#318426
0!!
#318620
1d
#318973
0{
#320000
b101 #
0!
#320596
1R
#320761
0X
#320919
0Y
#321160
0F
0,
#321968
1=
1*
#322170
0K
0L
0'
0&
#322846
0H
04
#323813
0q
#323815
1|
#323960
1t
#325000
1!
#325596
1X
#325776
1Y
#327249
1\
#327618
0[
#327672
1]
#327894
1m
#327923
1e
#327934
0c
#328380
0d
#328451
1n
#328650
1g
#330000
0!
#330761
0X
#330919
0Y
#331705
0=
0*
#331821
1>
1.
#331828
1B
1/
#335000
1!
#335596
1X
#335776
1Y
#337249
0\
1^
#337602
1[
#337618
0]
#337672
0m
#337673
0e
#337677
1a
#337770
1]
#337977
0h
#337982
0a
#338247
0n
#338434
0g
#340000
0!
#340761
0X
#340919
0Y
#341099
1?
1+
#341575
0>
0.
#341582
0B
0/
#345000
1!
#345596
1X
#345776
1Y
#347249
1\
#347618
0[
#347662
0]
#347671
1_
#347871
1h
#347873
1a
#347895
1w
#348455
1d
#350000
0!
#350761
0X
#350919
0Y
#351025
0?
0+
#351803
1=
1*
#355000
1!
#355596
1X
#355776
1Y
#357249
0\
0^
1`
#357602
1]
1[
#357618
0_
#357760
0]
#357764
1_
#357897
0a
#357902
1x
#358021
0w
#358049
1f
#358469
0x
#358533
0d
#358625
1n
#358639
1g
#360000
0!
#360761
0X
#360919
0Y
#361810
1>
1.
#361858
0=
0*
#362002
1B
1/
#365000
1!
#365596
1X
#365776
1Y
#367249
1\
#367618
0[
#367672
1]
#367910
1i
#367918
1c
#367942
0f
#368332
1d
#368552
0g
#368575
0n
#370000
0!
#370761
0X
#370919
0Y
#371191
1@
10
#371680
1=
1*
#371693
0>
0.
#371910
0B
0/
#375000
1!
#375596
1X
#375776
1Y
#377249
0\
1^
#377602
1[
#377618
0]
#377770
1]
#377953
0c
#377955
0i
#377970
1m
#378399
0d
#378527
1n
#380000
0!
#380761
0X
#380919
0Y
#381215
0@
00
#381724
0=
0*
#381904
1B
1/
#385000
1!
#385596
1X
#385776
1Y
#387249
1\
#387618
0[
#387661
0_
#387662
0]
#387892
0m
#387895
1w
#388167
1p
#388311
1x
#388467
0n
#388492
1!!
#389137
1}
#390000
0!
#390761
0X
#390919
0Y
#391481
1F
1,
#391802
0B
0/
#392227
1K
1L
1'
1&
#392557
1I
12
#395000
1!
#395596
1X
#395776
1Y
#397249
0\
0^
0`
#397602
1_
1]
1[
#397754
0_
#397760
0]
#398001
0x
#398021
0w
#398087
0p
#398206
1c
#398426
0!!
#398620
1d
#399116
0}
#400000
b111 #
b110 #
0!
#400596
1N
#400761
0X
0R
#400919
0Y
#401160
0F
0,
#401968
1=
1*
#402170
0K
0L
0'
0&
#402500
0I
02
#403519
1"!
#403522
1b
#403845
0t
#403861
1l
#404014
0|
#404225
1u
#404227
1q
#404380
1t
#404782
1v
#405000
1!
#405596
1X
#405776
1Y
#407249
1\
#407618
0[
#407672
1]
#407894
1m
#407923
1e
#407934
0c
#408380
0d
#408451
1n
#408650
1g
#410000
0!
#410761
0X
#410919
0Y
#411705
0=
0*
#411821
1>
1.
#411828
1B
1/
#415000
1!
#415596
1X
#415776
1Y
#417249
0\
1^
#417602
1[
#417618
0]
#417672
0m
#417673
0e
#417677
1a
#417770
1]
#417977
0h
#417982
0a
#418011
1x
#418247
0n
#418335
0x
#418434
0g
#420000
0!
#420761
0X
#420919
0Y
#421099
1?
1+
#421575
0>
0.
#421582
0B
0/
#425000
1!
#425596
1X
#425776
1Y
#427249
1\
#427618
0[
#427662
0]
#427671
1_
#427871
1h
#427873
1a
#428207
1x
#428539
1~
#429355
1!!
#430000
0!
#430761
0X
#430919
0Y
#431025
0?
0+
#431377
1F
1,
#431980
1J
13
#433090
1K
1L
1'
1&
#435000
1!
#435596
1X
#435776
1Y
#437249
0\
0^
1`
#437602
1]
1[
#437618
0_
#437760
0]
#437764
1_
#437897
0a
#438049
1f
#438250
0x
#438601
0~
#439436
0!!
#440000
0!
#440761
0X
#440919
0Y
#441409
0F
0,
#442027
0J
03
#443180
0K
0L
0'
0&
#445000
1!
#445596
1X
#445776
1Y
#447249
1\
#447618
0[
#447672
1]
#447942
0f
#450000
0!
#450761
0X
#450919
0Y
#455000
1!
#455596
1X
#455776
1Y
#457249
0\
1^
#457602
1[
#457618
0]
#457770
1]
#460000
0!
#460761
0X
#460919
0Y
#465000
1!
#465596
1X
#465776
1Y
#467249
1\
#467618
0[
#467661
0_
#467662
0]
#468167
1p
#470000
0!
#470761
0X
#470919
0Y
#475000
1!
#475596
1X
#475776
1Y
#477249
0\
0^
0`
#477602
1_
1]
1[
#477754
0_
#477760
0]
#478087
0p
#478206
1c
#478620
1d
#480000
b1110 #
b1010 #
b1000 #
0!
#480596
1P
#480761
0X
0O
0N
#480919
0Y
#481943
0u
#481951
0q
#481968
1=
1*
#482085
0"!
#482229
1Q
#484266
0t
#484394
0W
#484815
0v
#485000
1!
#485596
1X
#485776
1Y
#487249
1\
#487618
0[
#487672
1]
#487894
1m
#487895
1w
#487923
1e
#487934
0c
#488380
0d
#488451
1n
#488650
1g
#490000
0!
#490761
0X
#490919
0Y
#491705
0=
0*
#491821
1>
1.
#491828
1B
1/
#495000
1!
#495596
1X
#495776
1Y
#497249
0\
1^
#497602
1[
#497618
0]
#497672
0m
#497673
0e
#497677
1a
#497770
1]
#497917
0w
#497977
0h
#497982
0a
#498247
0n
#498434
0g
#500000
0!
#500761
0X
#500919
0Y
#501099
1?
1+
#501575
0>
0.
#501582
0B
0/
#505000
1!
#505596
1X
#505776
1Y
#507249
1\
#507618
0[
#507662
0]
#507671
1_
#507871
1h
#507873
1a
#508455
1d
#510000
0!
#510761
0X
#510919
0Y
#511025
0?
0+
#511803
1=
1*
#515000
1!
#515596
1X
#515776
1Y
#517249
0\
0^
1`
#517602
1]
1[
#517618
0_
#517760
0]
#517764
1_
#517897
0a
#518049
1f
#518533
0d
#518625
1n
#520000
0!
#520761
0X
#520919
0Y
#521858
0=
0*
#522002
1B
1/
#525000
1!
#525596
1X
#525776
1Y
#527249
1\
#527618
0[
#527672
1]
#527895
1s
1w
#527942
0f
#528311
1x
#528575
0n
#530000
0!
#530761
0X
#530919
0Y
#531199
1E
1(
#531481
1F
1,
#531910
0B
0/
#535000
1!
#535596
1X
#535776
1Y
#537249
0\
1^
#537602
1[
#537618
0]
#537670
0s
#537770
1]
#537917
0w
#538365
0x
#540000
0!
#540761
0X
#540919
0Y
#540946
0E
0(
#541524
0F
0,
#545000
1!
#545596
1X
#545776
1Y
#547249
1\
#547618
0[
#547661
0_
#547662
0]
#548167
1p
#550000
0!
#550761
0X
#550919
0Y
#555000
1!
#555596
1X
#555776
1Y
#557249
0\
0^
0`
#557602
1_
1]
1[
#557754
0_
#557760
0]
#558087
0p
#558206
1c
#558620
1d
#560000
b1001 #
0!
#560596
1R
#560761
0X
#560919
0Y
#561968
1=
1*
#563811
1W
#563815
1|
#563960
1t
#564468
1v
#565000
1!
#565596
1X
#565776
1Y
#567249
1\
#567618
0[
#567672
1]
#567894
1m
#567923
1e
#567934
0c
#568380
0d
#568451
1n
#568650
1g
#570000
0!
#570761
0X
#570919
0Y
#571705
0=
0*
#571821
1>
1.
#571828
1B
1/
#575000
1!
#575596
1X
#575776
1Y
#577249
0\
1^
#577602
1[
#577618
0]
#577672
0m
#577673
0e
#577677
1a
#577770
1]
#577977
0h
#577982
0a
#578011
1x
#578247
0n
#578335
0x
#578434
0g
#580000
0!
#580761
0X
#580919
0Y
#581099
1?
1+
#581575
0>
0.
#581582
0B
0/
#585000
1!
#585596
1X
#585776
1Y
#587249
1\
#587618
0[
#587662
0]
#587671
1_
#587871
1h
#587873
1a
#588207
1x
#590000
0!
#590761
0X
#590919
0Y
#591025
0?
0+
#591377
1F
1,
#595000
1!
#595596
1X
#595776
1Y
#597249
0\
0^
1`
#597602
1]
1[
#597618
0_
#597760
0]
#597764
1_
#597897
0a
#598049
1f
#598250
0x
#600000
0!
#600761
0X
#600919
0Y
#601409
0F
0,
#605000
1!
#605596
1X
#605776
1Y
#607249
1\
#607618
0[
#607672
1]
#607942
0f
#610000
0!
#610761
0X
#610919
0Y
#615000
1!
#615596
1X
#615776
1Y
#617249
0\
1^
#617602
1[
#617618
0]
#617770
1]
#620000
0!
#620761
0X
#620919
0Y
#625000
1!
#625596
1X
#625776
1Y
#627249
1\
#627618
0[
#627661
0_
#627662
0]
#628167
1p
#630000
0!
#630761
0X
#630919
0Y
#635000
1!
#635596
1X
#635776
1Y
#637249
0\
0^
0`
#637602
1_
1]
1[
#637754
0_
#637760
0]
#638087
0p
#638206
1c
#638620
1d
#640000
b1011 #
b1010 #
0!
#640596
1N
#640761
0X
0R
#640919
0Y
#641968
1=
1*
#643845
0t
#644014
0|
#644380
1t
#644394
0v
#644888
1v
#645000
1!
#645596
1X
#645776
1Y
#647249
1\
#647618
0[
#647672
1]
#647894
1m
#647923
1e
#647934
0c
#648380
0d
#648451
1n
#648650
1g
#650000
0!
#650761
0X
#650919
0Y
#651705
0=
0*
#651821
1>
1.
#651828
1B
1/
#655000
1!
#655596
1X
#655776
1Y
#657249
0\
1^
#657602
1[
#657618
0]
#657672
0m
#657673
0e
#657677
1a
#657770
1]
#657977
0h
#657982
0a
#658011
1x
#658247
0n
#658335
0x
#658434
0g
#660000
0!
#660761
0X
#660919
0Y
#661099
1?
1+
#661575
0>
0.
#661582
0B
0/
#665000
1!
#665596
1X
#665776
1Y
#667249
1\
#667618
0[
#667662
0]
#667671
1_
#667871
1h
#667873
1a
#668207
1x
#670000
0!
#670761
0X
#670919
0Y
#671025
0?
0+
#671377
1F
1,
#675000
1!
#675596
1X
#675776
1Y
#677249
0\
0^
1`
#677602
1]
1[
#677618
0_
#677760
0]
#677764
1_
#677897
0a
#678049
1f
#678250
0x
#680000
0!
#680761
0X
#680919
0Y
#681409
0F
0,
#685000
1!
#685596
1X
#685776
1Y
#687249
1\
#687618
0[
#687672
1]
#687942
0f
#690000
0!
#690761
0X
#690919
0Y
#695000
1!
#695596
1X
#695776
1Y
#697249
0\
1^
#697602
1[
#697618
0]
#697770
1]
#700000
0!
#700761
0X
#700919
0Y
#705000
1!
#705596
1X
#705776
1Y
#707249
1\
#707618
0[
#707661
0_
#707662
0]
#708167
1p
#710000
0!
#710761
0X
#710919
0Y
#715000
1!
#715596
1X
#715776
1Y
#717249
0\
0^
0`
#717602
1_
1]
1[
#717754
0_
#717760
0]
#718087
0p
#718206
1c
#718620
1d
#720000
1$
b1000 #
b1001 #
0!
#720594
1T
#720596
1R
#720761
0X
0N
#720919
0Y
#721968
1=
1*
#723973
0t
#724287
1U
#724433
1|
#724522
0v
#724813
0V
#725000
1!
#725157
0W
#725596
1X
#725776
1Y
#727249
1\
#727618
0[
#727672
1]
#727894
1m
#727895
1w
#727923
1e
#727934
0c
#728380
0d
#728451
1n
#728650
1g
#730000
0!
#730761
0X
#730919
0Y
#731705
0=
0*
#731821
1>
1.
#731828
1B
1/
#735000
1!
#735596
1X
#735776
1Y
#737249
0\
1^
#737602
1[
#737618
0]
#737672
0m
#737677
1a
#737770
1]
#737917
0w
#737977
0h
#737982
0a
#738027
0e
#738247
0n
#738788
0g
#740000
0!
#740761
0X
#740919
0Y
#741099
1?
1+
#741582
0B
0/
#741929
0>
0.
#745000
1!
#745596
1X
#745776
1Y
#747249
1\
#747618
0[
#747662
0]
#747671
1_
#747871
1h
#747873
1a
#747923
1e
#748455
1d
#748650
1g
#750000
0!
#750761
0X
#750919
0Y
#751025
0?
0+
#751803
1=
1*
#751821
1>
1.
#755000
1!
#755596
1X
#755776
1Y
#757249
0\
0^
1`
#757602
1]
1[
#757618
0_
#757760
0]
#757764
1_
#757897
0a
#757940
0e
#758049
1f
#758533
0d
#758625
1n
#758701
0g
#760000
0!
#760761
0X
#760919
0Y
#761842
0>
0.
#761858
0=
0*
#762002
1B
1/
#765000
1!
#765596
1X
#765776
1Y
#767249
1\
#767618
0[
#767672
1]
#767895
1s
1w
#767942
0f
#768311
1x
#768575
0n
#770000
0!
#770761
0X
#770919
0Y
#771199
1E
1(
#771481
1F
1,
#771910
0B
0/
#775000
1!
#775596
1X
#775776
1Y
#777249
0\
1^
#777602
1[
#777618
0]
#777670
0s
#777770
1]
#777917
0w
#778365
0x
#780000
0!
#780761
0X
#780919
0Y
#780946
0E
0(
#781524
0F
0,
#785000
1!
#785596
1X
#785776
1Y
#787249
1\
#787618
0[
#787661
0_
#787662
0]
#788167
1p
#790000
0!
#790761
0X
#790919
0Y
#795000
1!
#795596
1X
#795776
1Y
#797249
0\
0^
0`
#797602
1_
1]
1[
#797754
0_
#797760
0]
#798087
0p
#798206
1c
#798620
1d
#800000
1%
0$
b1011 #
b1010 #
0!
#800594
1S
#800596
1N
#800759
0T
#800761
0X
0R
#800919
0Y
#801968
1=
1*
#803861
0U
#804014
0|
#804389
1U
#804437
1V
#804765
1W
#804915
0V
#805000
1!
#805259
0W
#805596
1X
#805776
1Y
#807249
1\
#807618
0[
#807672
1]
#807894
1m
#807895
1w
#807923
1e
#807934
0c
#808380
0d
#808451
1n
#808650
1g
#810000
0!
#810761
0X
#810919
0Y
#811705
0=
0*
#811821
1>
1.
#811828
1B
1/
#815000
1!
#815596
1X
#815776
1Y
#817249
0\
1^
#817602
1[
#817618
0]
#817672
0m
#817677
1a
#817770
1]
#817917
0w
#817977
0h
#817982
0a
#818027
0e
#818247
0n
#818788
0g
#820000
0!
#820761
0X
#820919
0Y
#821099
1?
1+
#821582
0B
0/
#821929
0>
0.
#825000
1!
#825596
1X
#825776
1Y
#827249
1\
#827618
0[
#827662
0]
#827671
1_
#827871
1h
#827873
1a
#827923
1e
#828455
1d
#828650
1g
#830000
0!
#830761
0X
#830919
0Y
#831025
0?
0+
#831803
1=
1*
#831821
1>
1.
#835000
1!
#835596
1X
#835776
1Y
#837249
0\
0^
1`
#837602
1]
1[
#837618
0_
#837760
0]
#837764
1_
#837897
0a
#837940
0e
#838049
1f
#838533
0d
#838625
1n
#838701
0g
#840000
0!
#840761
0X
#840919
0Y
#841842
0>
0.
#841858
0=
0*
#842002
1B
1/
#845000
1!
#845596
1X
#845776
1Y
#847249
1\
#847618
0[
#847672
1]
#847895
1s
1w
#847942
0f
#848311
1x
#848575
0n
#850000
0!
#850761
0X
#850919
0Y
#851199
1E
1(
#851481
1F
1,
#851910
0B
0/
#855000
1!
#855596
1X
#855776
1Y
#857249
0\
1^
#857602
1[
#857618
0]
