ripplecounter/simulation/qsim/ripplecounter.msim.vcd
$comment
	File created using the following command:
		vcd file ripplecounter.msim.vcd -direction
$end
$date
	Thu Apr 15 14:12:57 2021
$end
$version
	ModelSim Version 2020.1
$end
$timescale
	1ps
$end

$scope module ripplecounter_vlg_vec_tst $end
$var reg 1 ! CLK $end
$var wire 1 " Q [0] $end
$var wire 1 # Q [1] $end
$var wire 1 $ Q [2] $end
$var wire 1 % Q [3] $end
$var wire 1 & Q [4] $end
$var wire 1 ' Q [5] $end
$var wire 1 ( Q [6] $end
$var wire 1 ) Q [7] $end

$scope module i1 $end
$var wire 1 * gnd $end
$var wire 1 + vcc $end
$var wire 1 , unknown $end
$var tri1 1 - devclrn $end
$var tri1 1 . devpor $end
$var tri1 1 / devoe $end
$var wire 1 0 Q[0]~output_o $end
$var wire 1 1 Q[1]~output_o $end
$var wire 1 2 Q[2]~output_o $end
$var wire 1 3 Q[3]~output_o $end
$var wire 1 4 Q[4]~output_o $end
$var wire 1 5 Q[5]~output_o $end
$var wire 1 6 Q[6]~output_o $end
$var wire 1 7 Q[7]~output_o $end
$var wire 1 8 CLK~input_o $end
$var wire 1 9 inst0~0_combout $end
$var wire 1 : inst0~feeder_combout $end
$var wire 1 ; inst0~q $end
$var wire 1 < inst1~0_combout $end
$var wire 1 = inst1~feeder_combout $end
$var wire 1 > inst1~q $end
$var wire 1 ? inst2~0_combout $end
$var wire 1 @ inst2~feeder_combout $end
$var wire 1 A inst2~q $end
$var wire 1 B inst3~0_combout $end
$var wire 1 C inst3~feeder_combout $end
$var wire 1 D inst3~q $end
$var wire 1 E inst4~0_combout $end
$var wire 1 F inst4~q $end
$var wire 1 G inst5~0_combout $end
$var wire 1 H inst5~feeder_combout $end
$var wire 1 I inst5~q $end
$var wire 1 J inst6~0_combout $end
$var wire 1 K inst6~feeder_combout $end
$var wire 1 L inst6~q $end
$var wire 1 M inst7~0_combout $end
$var wire 1 N inst7~q $end
$upscope $end
$upscope $end
$enddefinitions $end
#0
$dumpvars
1!
0)
0(
0'
0&
0%
0$
0#
0"
0*
1+
x,
1-
1.
1/
00
01
02
03
04
05
06
07
18
19
1:
0;
1<
1=
0>
1?
1@
0A
1B
1C
0D
1E
0F
1G
1H
0I
1J
1K
0L
1M
0N
$end
#10000
0!
08
#20000
1!
18
1;
10
09
1"
0:
#30000
0!
08
#40000
1!
18
0;
00
19
0"
1:
1>
11
0<
1#
0=
#50000
0!
08
#60000
1!
18
1;
10
09
1"
0:
#70000
0!
08
#80000
1!
18
0;
00
19
0"
1:
0>
01
1<
0#
1=
1A
12
0?
1$
0@
#90000
0!
08
#100000
1!
18
1;
10
09
1"
0:
#110000
0!
08
#120000
1!
18
0;
00
19
0"
1:
1>
11
0<
1#
0=
#130000
0!
08
#140000
1!
18
1;
10
09
1"
0:
#150000
0!
08
#160000
1!
18
0;
00
19
0"
1:
0>
01
1<
0#
1=
0A
02
1?
0$
1@
1D
13
0B
1%
0C
#170000
0!
08
#180000
1!
18
1;
10
09
1"
0:
#190000
0!
08
#200000
1!
18
0;
00
19
0"
1:
1>
11
0<
1#
0=
#210000
0!
08
#220000
1!
18
1;
10
09
1"
0:
#230000
0!
08
#240000
1!
18
0;
00
19
0"
1:
0>
01
1<
0#
1=
1A
12
0?
1$
0@
#250000
0!
08
#260000
1!
18
1;
10
09
1"
0:
#270000
0!
08
#280000
1!
18
0;
00
19
0"
1:
1>
11
0<
1#
0=
#290000
0!
08
#300000
1!
18
1;
10
09
1"
0:
#310000
0!
08
#320000
1!
18
0;
00
19
0"
1:
0>
01
1<
0#
1=
0A
02
1?
0$
1@
0D
03
1B
0%
1C
1F
14
0E
1&
#330000
0!
08
#340000
1!
18
1;
10
09
1"
0:
#350000
0!
08
#360000
1!
18
0;
00
19
0"
1:
1>
11
0<
1#
0=
#370000
0!
08
#380000
1!
18
1;
10
09
1"
0:
#390000
0!
08
#400000
1!
18
0;
00
19
0"
1:
0>
01
1<
0#
1=
1A
12
0?
1$
0@
#410000
0!
08
#420000
1!
18
1;
10
09
1"
0:
#430000
0!
08
#440000
1!
18
0;
00
19
0"
1:
1>
11
0<
1#
0=
#450000
0!
08
#460000
1!
18
1;
10
09
1"
0:
#470000
0!
08
#480000
1!
18
0;
00
19
0"
1:
0>
01
1<
0#
1=
0A
02
1?
0$
1@
1D
13
0B
1%
0C
#490000
0!
08
#500000
1!
18
1;
10
09
1"
0:
#510000
0!
08
#520000
1!
18
0;
00
19
0"
1:
1>
11
0<
1#
0=
#530000
0!
08
#540000
1!
18
1;
10
09
1"
0:
#550000
0!
08
#560000
1!
18
0;
00
19
0"
1:
0>
01
1<
0#
1=
1A
12
0?
1$
0@
#570000
0!
08
#580000
1!
18
1;
10
09
1"
0:
#590000
0!
08
#600000
1!
18
0;
00
19
0"
1:
1>
11
0<
1#
0=
#610000
0!
08
#620000
1!
18
1;
10
09
1"
0:
#630000
0!
08
#640000
1!
18
0;
00
19
0"
1:
0>
01
1<
0#
1=
0A
02
1?
0$
1@
0D
03
1B
0%
1C
0F
04
1E
0&
1I
15
0G
1'
0H
#650000
0!
08
#660000
1!
18
1;
10
09
1"
0:
#670000
0!
08
#680000
1!
18
0;
00
19
0"
1:
1>
11
0<
1#
0=
#690000
0!
08
#700000
1!
18
1;
10
09
1"
0:
#710000
0!
08
#720000
1!
18
0;
00
19
0"
1:
0>
01
1<
0#
1=
1A
12
0?
1$
0@
#730000
0!
08
#740000
1!
18
1;
10
09
1"
0:
#750000
0!
08
#760000
1!
18
0;
00
19
0"
1:
1>
11
0<
1#
0=
#770000
0!
08
#780000
1!
18
1;
10
09
1"
0:
#790000
0!
08
#800000
1!
18
0;
00
19
0"
1:
0>
01
1<
0#
1=
0A
02
1?
0$
1@
1D
13
0B
1%
0C
#810000
0!
08
#820000
1!
18
1;
10
09
1"
0:
#830000
0!
08
#840000
1!
18
0;
00
19
0"
1:
1>
11
0<
1#
0=
#850000
0!
08
#860000
1!
18
1;
10
09
1"
0:
#870000
0!
08
#880000
1!
18
0;
00
19
0"
1:
0>
01
1<
0#
1=
1A
12
0?
1$
0@
#890000
0!
08
#900000
1!
18
1;
10
09
1"
0:
#910000
0!
08
#920000
1!
18
0;
00
19
0"
1:
1>
11
0<
1#
0=
#930000
0!
08
#940000
1!
18
1;
10
09
1"
0:
#950000
0!
08
#960000
1!
18
0;
00
19
0"
1:
0>
01
1<
0#
1=
0A
02
1?
0$
1@
0D
03
1B
0%
1C
1F
14
0E
1&
#970000
0!
08
#980000
1!
18
1;
10
09
1"
0:
#990000
0!
08
