decod7segment/simulation/qsim/decod7segment.msim.vcd
$comment
	File created using the following command:
		vcd file decod7segment.msim.vcd -direction
$end
$date
	Wed Mar 10 22:55:33 2021
$end
$version
	ModelSim Version 2020.1
$end
$timescale
	1ps
$end

$scope module decod7segment_vlg_vec_tst $end
$var reg 1 ! I0 $end
$var reg 1 " I1 $end
$var reg 1 # I2 $end
$var reg 1 $ I3 $end
$var wire 1 % a $end
$var wire 1 & b $end
$var wire 1 ' c $end
$var wire 1 ( d $end
$var wire 1 ) e $end
$var wire 1 * f $end
$var wire 1 + g $end

$scope module i1 $end
$var wire 1 , gnd $end
$var wire 1 - vcc $end
$var wire 1 . unknown $end
$var tri1 1 / devclrn $end
$var tri1 1 0 devpor $end
$var tri1 1 1 devoe $end
$var wire 1 2 ~QUARTUS_CREATED_GND~I_combout $end
$var wire 1 3 I1~input_o $end
$var wire 1 4 I0~input_o $end
$var wire 1 5 I2~input_o $end
$var wire 1 6 I3~input_o $end
$var wire 1 7 g_and~0_combout $end
$var wire 1 8 f_and~0_combout $end
$var wire 1 9 a_and~combout $end
$var wire 1 : b_and~0_combout $end
$var wire 1 ; c_and~0_combout $end
$var wire 1 < d_and~0_combout $end
$var wire 1 = e_and~0_combout $end
$upscope $end
$upscope $end
$enddefinitions $end
#0
$dumpvars
0!
0"
0#
0$
1%
1&
1'
1(
1)
1*
0+
0,
1-
x.
1/
10
11
02
03
04
05
06
07
18
19
1:
1;
1<
1=
$end
#62500
1$
16
0=
0<
09
08
0*
0%
0(
0)
#125000
1#
0$
15
06
1=
1<
0;
19
17
1+
1%
0'
1(
1)
#187500
1$
16
0=
1;
1'
0)
#250000
1"
0#
0$
13
05
06
0<
09
18
1*
0%
0(
#312500
1$
16
1<
0:
19
1%
0&
1(
#375000
1#
0$
15
06
1=
1)
#437500
1$
16
0=
0<
1:
08
07
0+
0*
1&
0(
0)
#500000
1!
0"
0#
0$
14
03
05
06
1=
1<
18
17
1+
1*
1(
1)
#562500
1$
16
0=
0)
#625000
1#
0$
15
06
1=
0<
0(
1)
#687500
1$
16
1<
0:
09
0%
0&
1(
#750000
1"
0#
0$
13
05
06
0;
19
07
0+
1%
0'
#812500
1$
16
1;
1:
09
08
17
1+
0*
0%
1&
1'
#875000
1#
0$
15
06
0;
0:
19
18
1*
1%
0&
0'
#937500
1$
16
0<
0(
