neander/simulation/qsim/neander.msim.vcd
$comment
	File created using the following command:
		vcd file neander.msim.vcd -direction
$end
$date
	Mon May 24 14:08:27 2021
$end
$version
	ModelSim Version 2020.1
$end
$timescale
	1ps
$end

$scope module neander_vlg_vec_tst $end
$var reg 1 ! CLK $end
$var reg 8 " read [7:0] $end
$var wire 1 # cargaRI $end
$var wire 1 $ CONTADOR [2] $end
$var wire 1 % CONTADOR [1] $end
$var wire 1 & CONTADOR [0] $end
$var wire 1 ' dataAC [7] $end
$var wire 1 ( dataAC [6] $end
$var wire 1 ) dataAC [5] $end
$var wire 1 * dataAC [4] $end
$var wire 1 + dataAC [3] $end
$var wire 1 , dataAC [2] $end
$var wire 1 - dataAC [1] $end
$var wire 1 . dataAC [0] $end
$var wire 1 / dataPC [7] $end
$var wire 1 0 dataPC [6] $end
$var wire 1 1 dataPC [5] $end
$var wire 1 2 dataPC [4] $end
$var wire 1 3 dataPC [3] $end
$var wire 1 4 dataPC [2] $end
$var wire 1 5 dataPC [1] $end
$var wire 1 6 dataPC [0] $end
$var wire 1 7 dataRDMr [7] $end
$var wire 1 8 dataRDMr [6] $end
$var wire 1 9 dataRDMr [5] $end
$var wire 1 : dataRDMr [4] $end
$var wire 1 ; dataRDMr [3] $end
$var wire 1 < dataRDMr [2] $end
$var wire 1 = dataRDMr [1] $end
$var wire 1 > dataRDMr [0] $end
$var wire 1 ? dataREM [7] $end
$var wire 1 @ dataREM [6] $end
$var wire 1 A dataREM [5] $end
$var wire 1 B dataREM [4] $end
$var wire 1 C dataREM [3] $end
$var wire 1 D dataREM [2] $end
$var wire 1 E dataREM [1] $end
$var wire 1 F dataREM [0] $end
$var wire 1 G dataRI [7] $end
$var wire 1 H dataRI [6] $end
$var wire 1 I dataRI [5] $end
$var wire 1 J dataRI [4] $end
$var wire 1 K dataRI [3] $end
$var wire 1 L dataRI [2] $end
$var wire 1 M dataRI [1] $end
$var wire 1 N dataRI [0] $end
$var wire 1 O LOG_gotot0 $end
$var wire 1 P LOG_HALT $end
$var wire 1 Q LOG_IncPC $end
$var wire 1 R LOG_Read $end
$var wire 1 S LOG_Sel $end
$var wire 1 T sinalWrite $end
$var wire 1 U write [7] $end
$var wire 1 V write [6] $end
$var wire 1 W write [5] $end
$var wire 1 X write [4] $end
$var wire 1 Y write [3] $end
$var wire 1 Z write [2] $end
$var wire 1 [ write [1] $end
$var wire 1 \ write [0] $end

$scope module i1 $end
$var wire 1 ] gnd $end
$var wire 1 ^ vcc $end
$var wire 1 _ unknown $end
$var tri1 1 ` devclrn $end
$var tri1 1 a devpor $end
$var tri1 1 b devoe $end
$var wire 1 c sinalWrite~output_o $end
$var wire 1 d cargaRI~output_o $end
$var wire 1 e LOG_gotot0~output_o $end
$var wire 1 f LOG_HALT~output_o $end
$var wire 1 g LOG_IncPC~output_o $end
$var wire 1 h LOG_Read~output_o $end
$var wire 1 i LOG_Sel~output_o $end
$var wire 1 j CONTADOR[2]~output_o $end
$var wire 1 k CONTADOR[1]~output_o $end
$var wire 1 l CONTADOR[0]~output_o $end
$var wire 1 m dataAC[7]~output_o $end
$var wire 1 n dataAC[6]~output_o $end
$var wire 1 o dataAC[5]~output_o $end
$var wire 1 p dataAC[4]~output_o $end
$var wire 1 q dataAC[3]~output_o $end
$var wire 1 r dataAC[2]~output_o $end
$var wire 1 s dataAC[1]~output_o $end
$var wire 1 t dataAC[0]~output_o $end
$var wire 1 u dataPC[7]~output_o $end
$var wire 1 v dataPC[6]~output_o $end
$var wire 1 w dataPC[5]~output_o $end
$var wire 1 x dataPC[4]~output_o $end
$var wire 1 y dataPC[3]~output_o $end
$var wire 1 z dataPC[2]~output_o $end
$var wire 1 { dataPC[1]~output_o $end
$var wire 1 | dataPC[0]~output_o $end
$var wire 1 } dataRDMr[7]~output_o $end
$var wire 1 ~ dataRDMr[6]~output_o $end
$var wire 1 !! dataRDMr[5]~output_o $end
$var wire 1 "! dataRDMr[4]~output_o $end
$var wire 1 #! dataRDMr[3]~output_o $end
$var wire 1 $! dataRDMr[2]~output_o $end
$var wire 1 %! dataRDMr[1]~output_o $end
$var wire 1 &! dataRDMr[0]~output_o $end
$var wire 1 '! dataREM[7]~output_o $end
$var wire 1 (! dataREM[6]~output_o $end
$var wire 1 )! dataREM[5]~output_o $end
$var wire 1 *! dataREM[4]~output_o $end
$var wire 1 +! dataREM[3]~output_o $end
$var wire 1 ,! dataREM[2]~output_o $end
$var wire 1 -! dataREM[1]~output_o $end
$var wire 1 .! dataREM[0]~output_o $end
$var wire 1 /! dataRI[7]~output_o $end
$var wire 1 0! dataRI[6]~output_o $end
$var wire 1 1! dataRI[5]~output_o $end
$var wire 1 2! dataRI[4]~output_o $end
$var wire 1 3! dataRI[3]~output_o $end
$var wire 1 4! dataRI[2]~output_o $end
$var wire 1 5! dataRI[1]~output_o $end
$var wire 1 6! dataRI[0]~output_o $end
$var wire 1 7! write[7]~output_o $end
$var wire 1 8! write[6]~output_o $end
$var wire 1 9! write[5]~output_o $end
$var wire 1 :! write[4]~output_o $end
$var wire 1 ;! write[3]~output_o $end
$var wire 1 <! write[2]~output_o $end
$var wire 1 =! write[1]~output_o $end
$var wire 1 >! write[0]~output_o $end
$var wire 1 ?! CLK~input_o $end
$var wire 1 @! CLK~inputclkctrl_outclk $end
$var wire 1 A! inst|inst2zsd|inst2~0_combout $end
$var wire 1 B! inst|inst2zsd|inst2~q $end
$var wire 1 C! read[5]~input_o $end
$var wire 1 D! read[6]~input_o $end
$var wire 1 E! inst3|RDMr|dff6~q $end
$var wire 1 F! inst|TEMPORIZADORinst|inst5~combout $end
$var wire 1 G! inst3|RI|dff6~q $end
$var wire 1 H! read[7]~input_o $end
$var wire 1 I! inst3|RDMr|dff7~q $end
$var wire 1 J! inst3|RI|dff7~q $end
$var wire 1 K! inst|inst21~0_combout $end
$var wire 1 L! read[4]~input_o $end
$var wire 1 M! inst3|RDMr|dff4~q $end
$var wire 1 N! inst3|RI|dff4~q $end
$var wire 1 O! inst|OR8inst~1_combout $end
$var wire 1 P! inst|inst1|inst8~combout $end
$var wire 1 Q! inst|TEMPORIZADORinst|inst2~combout $end
$var wire 1 R! inst|inst1|inst6~0_combout $end
$var wire 1 S! inst|inst34~0_combout $end
$var wire 1 T! inst|inst34~1_combout $end
$var wire 1 U! inst3|inst99|inst10|mux|inst6|inst3~12_combout $end
$var wire 1 V! inst|inst30~combout $end
$var wire 1 W! inst2|inst~combout $end
$var wire 1 X! inst2|inst2~combout $end
$var wire 1 Y! read[3]~input_o $end
$var wire 1 Z! inst3|RDMr|dff3~q $end
$var wire 1 [! inst3|inst99|inst6|mux|inst6|inst3~9_combout $end
$var wire 1 \! read[2]~input_o $end
$var wire 1 ]! inst3|RDMr|dff2~q $end
$var wire 1 ^! inst3|inst99|inst5|mux|inst6|inst3~1_combout $end
$var wire 1 _! read[0]~input_o $end
$var wire 1 `! inst3|RDMr|dff0~q $end
$var wire 1 a! read[1]~input_o $end
$var wire 1 b! inst3|RDMr|dff1~q $end
$var wire 1 c! inst3|inst99|inst4|mux|inst6|inst3~2_combout $end
$var wire 1 d! inst3|inst99|inst|mux|inst6|inst3~0_combout $end
$var wire 1 e! inst3|inst99|inst|mux|inst6|inst3~1_combout $end
$var wire 1 f! inst|inst35~combout $end
$var wire 1 g! inst3|AC|dff0~q $end
$var wire 1 h! inst3|inst99|inst4|mux|inst6|inst3~0_combout $end
$var wire 1 i! inst3|inst99|inst4|mux|inst6|inst3~1_combout $end
$var wire 1 j! inst3|inst99|inst4|mux|inst6|inst3~3_combout $end
$var wire 1 k! inst3|AC|dff1~q $end
$var wire 1 l! inst3|inst99|inst4|inst|inst3~0_combout $end
$var wire 1 m! inst3|inst99|inst5|mux|inst6|inst3~0_combout $end
$var wire 1 n! inst3|inst99|inst5|mux|inst6|inst3~2_combout $end
$var wire 1 o! inst3|AC|dff2~q $end
$var wire 1 p! inst3|inst99|inst6|mux|inst6|inst3~11_combout $end
$var wire 1 q! inst3|inst99|inst6|mux|inst6|inst3~8_combout $end
$var wire 1 r! inst3|inst99|inst6|mux|inst6|inst3~10_combout $end
$var wire 1 s! inst3|AC|dff3~q $end
$var wire 1 t! inst3|inst99|inst6|inst|inst3~0_combout $end
$var wire 1 u! inst3|inst99|inst6|inst|inst3~1_combout $end
$var wire 1 v! inst3|inst99|inst7|mux|inst6|inst3~0_combout $end
$var wire 1 w! inst3|inst99|inst7|mux|inst6|inst3~1_combout $end
$var wire 1 x! inst3|inst99|inst7|mux|inst6|inst3~2_combout $end
$var wire 1 y! inst3|AC|dff4~q $end
$var wire 1 z! inst3|inst99|inst7|inst|inst3~0_combout $end
$var wire 1 {! inst3|inst99|inst8|mux|inst6|inst3~9_combout $end
$var wire 1 |! inst3|inst99|inst8|mux|inst6|inst3~11_combout $end
$var wire 1 }! inst3|inst99|inst8|mux|inst6|inst3~8_combout $end
$var wire 1 ~! inst3|inst99|inst8|mux|inst6|inst3~10_combout $end
$var wire 1 !" inst3|AC|dff5~q $end
$var wire 1 "" inst3|inst99|inst7|inst|inst3~1_combout $end
$var wire 1 #" inst3|inst99|inst9|mux|inst6|inst3~0_combout $end
$var wire 1 $" inst3|inst99|inst9|mux|inst6|inst3~1_combout $end
$var wire 1 %" inst3|inst99|inst9|mux|inst6|inst3~2_combout $end
$var wire 1 &" inst3|inst99|inst9|mux|inst6|inst3~3_combout $end
$var wire 1 '" inst3|AC|dff6~q $end
$var wire 1 (" inst3|inst99|inst8|inst|inst3~0_combout $end
$var wire 1 )" inst3|inst99|inst10|mux|inst6|inst3~8_combout $end
$var wire 1 *" inst3|inst99|inst10|mux|inst6|inst3~9_combout $end
$var wire 1 +" inst3|inst99|inst10|mux|inst6|inst3~10_combout $end
$var wire 1 ," inst3|inst99|inst10|mux|inst6|inst3~11_combout $end
$var wire 1 -" inst3|NZ|inst2~q $end
$var wire 1 ." inst3|NZ|inst1~1_combout $end
$var wire 1 /" inst3|NZ|inst1~0_combout $end
$var wire 1 0" inst3|NZ|inst1~combout $end
$var wire 1 1" inst3|NZ|inst3~q $end
$var wire 1 2" inst|OR8inst~0_combout $end
$var wire 1 3" inst|OR8inst~2_combout $end
$var wire 1 4" inst|inst18~0_combout $end
$var wire 1 5" inst|inst18~1_combout $end
$var wire 1 6" inst3|RDMr|dff5~q $end
$var wire 1 7" inst3|RI|dff5~q $end
$var wire 1 8" inst|inst~combout $end
$var wire 1 9" inst|inst43~2_combout $end
$var wire 1 :" inst|inst43~1_combout $end
$var wire 1 ;" inst|inst43~3_combout $end
$var wire 1 <" inst|inst39~0_combout $end
$var wire 1 =" inst|inst13~2_combout $end
$var wire 1 >" inst|inst54~2_combout $end
$var wire 1 ?" inst|inst2zsd|inst7~0_combout $end
$var wire 1 @" inst|inst2zsd|inst7~q $end
$var wire 1 A" inst|TEMPORIZADORinst|inst8~0_combout $end
$var wire 1 B" inst|inst43~0_combout $end
$var wire 1 C" inst|inst2zsd|inst8~0_combout $end
$var wire 1 D" inst|inst2zsd|inst8~1_combout $end
$var wire 1 E" inst|inst2zsd|inst8~q $end
$var wire 1 F" inst|inst1|inst~combout $end
$var wire 1 G" inst|inst22~combout $end
$var wire 1 H" inst|inst39~combout $end
$var wire 1 I" inst|instAW~0_combout $end
$var wire 1 J" inst|instAW~1_combout $end
$var wire 1 K" inst|instZZZ~0_combout $end
$var wire 1 L" inst|instZZZ~1_combout $end
$var wire 1 M" inst|instZZZ~2_combout $end
$var wire 1 N" inst|inst13~3_combout $end
$var wire 1 O" inst3|PC|inst0~0_combout $end
$var wire 1 P" inst3|PC|inst0~q $end
$var wire 1 Q" inst3|PC|inst4A0~0_combout $end
$var wire 1 R" inst3|PC|inst4A0~1_combout $end
$var wire 1 S" inst3|PC|inst4A0~q $end
$var wire 1 T" inst3|PC|inst40~0_combout $end
$var wire 1 U" inst3|PC|inst40~1_combout $end
$var wire 1 V" inst3|PC|inst40~q $end
$var wire 1 W" inst3|PC|inst8~combout $end
$var wire 1 X" inst3|PC|inst41~0_combout $end
$var wire 1 Y" inst3|PC|inst41~q $end
$var wire 1 Z" inst3|PC|inst42~0_combout $end
$var wire 1 [" inst3|PC|inst42~1_combout $end
$var wire 1 \" inst3|PC|inst42~q $end
$var wire 1 ]" inst3|PC|inst43~0_combout $end
$var wire 1 ^" inst3|PC|inst43~1_combout $end
$var wire 1 _" inst3|PC|inst43~q $end
$var wire 1 `" inst3|PC|inst11~combout $end
$var wire 1 a" inst3|PC|inst44~0_combout $end
$var wire 1 b" inst3|PC|inst44~q $end
$var wire 1 c" inst3|PC|inst45~0_combout $end
$var wire 1 d" inst3|PC|inst45~1_combout $end
$var wire 1 e" inst3|PC|inst45~q $end
$var wire 1 f" inst3|REM|bit7|inst3~0_combout $end
$var wire 1 g" inst|TEMPORIZADORinst|inst~0_combout $end
$var wire 1 h" inst|instSAD~combout $end
$var wire 1 i" inst3|REM|dff7~q $end
$var wire 1 j" inst3|REM|bit6|inst3~0_combout $end
$var wire 1 k" inst3|REM|dff6~q $end
$var wire 1 l" inst3|REM|bit5|inst3~0_combout $end
$var wire 1 m" inst3|REM|dff5~q $end
$var wire 1 n" inst3|REM|bit4|inst3~0_combout $end
$var wire 1 o" inst3|REM|dff4~q $end
$var wire 1 p" inst3|REM|bit3|inst3~0_combout $end
$var wire 1 q" inst3|REM|dff3~q $end
$var wire 1 r" inst3|REM|bit2|inst3~0_combout $end
$var wire 1 s" inst3|REM|dff2~q $end
$var wire 1 t" inst3|REM|bit1|inst3~0_combout $end
$var wire 1 u" inst3|REM|dff1~q $end
$var wire 1 v" inst3|REM|bit0|inst3~0_combout $end
$var wire 1 w" inst3|REM|dff0~q $end
$var wire 1 x" inst3|RI|dff3~feeder_combout $end
$var wire 1 y" inst3|RI|dff3~q $end
$var wire 1 z" inst3|RI|dff2~feeder_combout $end
$var wire 1 {" inst3|RI|dff2~q $end
$var wire 1 |" inst3|RI|dff1~feeder_combout $end
$var wire 1 }" inst3|RI|dff1~q $end
$var wire 1 ~" inst3|RI|dff0~q $end
$var wire 1 !# inst3|RDMw|dff7~feeder_combout $end
$var wire 1 "# inst|inst17~0_combout $end
$var wire 1 ## inst3|RDMw|dff7~q $end
$var wire 1 $# inst3|RDMw|dff6~feeder_combout $end
$var wire 1 %# inst3|RDMw|dff6~q $end
$var wire 1 &# inst3|RDMw|dff5~feeder_combout $end
$var wire 1 '# inst3|RDMw|dff5~q $end
$var wire 1 (# inst3|RDMw|dff4~feeder_combout $end
$var wire 1 )# inst3|RDMw|dff4~q $end
$var wire 1 *# inst3|RDMw|dff3~feeder_combout $end
$var wire 1 +# inst3|RDMw|dff3~q $end
$var wire 1 ,# inst3|RDMw|dff2~feeder_combout $end
$var wire 1 -# inst3|RDMw|dff2~q $end
$var wire 1 .# inst3|RDMw|dff1~feeder_combout $end
$var wire 1 /# inst3|RDMw|dff1~q $end
$var wire 1 0# inst3|RDMw|dff0~q $end
$upscope $end
$upscope $end
$enddefinitions $end
#0
$dumpvars
1!
b100000 "
0#
0&
0%
0$
0.
0-
0,
0+
0*
0)
0(
0'
06
05
04
03
02
01
00
0/
0>
0=
0<
0;
0:
09
08
07
0F
0E
0D
0C
0B
0A
0@
0?
0N
0M
0L
0K
0J
0I
0H
0G
0O
0P
0Q
0R
0S
0T
0\
0[
0Z
0Y
0X
0W
0V
0U
0]
1^
x_
1`
1a
1b
0c
0d
0e
0f
0g
0h
0i
0j
0k
0l
0m
0n
0o
0p
0q
0r
0s
0t
0u
0v
0w
0x
0y
0z
0{
0|
0}
0~
0!!
0"!
0#!
0$!
0%!
0&!
0'!
0(!
0)!
0*!
0+!
0,!
0-!
0.!
0/!
00!
01!
02!
03!
04!
05!
06!
07!
08!
09!
0:!
0;!
0<!
0=!
0>!
1?!
1@!
1A!
0B!
1C!
0D!
0E!
0F!
0G!
0H!
0I!
0J!
0K!
0L!
0M!
0N!
0O!
1P!
0Q!
1R!
0S!
0T!
0U!
0V!
0W!
0X!
0Y!
0Z!
0[!
0\!
0]!
0^!
0_!
0`!
0a!
0b!
0c!
0d!
0e!
0f!
0g!
0h!
0i!
0j!
0k!
0l!
0m!
0n!
0o!
0p!
0q!
0r!
0s!
0t!
0u!
0v!
0w!
0x!
0y!
0z!
0{!
0|!
0}!
0~!
0!"
0""
0#"
0$"
0%"
0&"
0'"
0("
0)"
0*"
0+"
0,"
0-"
0."
0/"
10"
01"
12"
03"
04"
05"
06"
07"
08"
19"
0:"
1;"
0<"
0="
0>"
0?"
0@"
0A"
0B"
1C"
0D"
0E"
1F"
0G"
0H"
0I"
0J"
0K"
0L"
0M"
0N"
0O"
0P"
0Q"
0R"
0S"
0T"
0U"
0V"
0W"
0X"
0Y"
0Z"
0["
0\"
0]"
0^"
0_"
0`"
0a"
0b"
0c"
0d"
0e"
0f"
1g"
1h"
0i"
0j"
0k"
0l"
0m"
0n"
0o"
0p"
0q"
0r"
0s"
0t"
0u"
0v"
0w"
0x"
0y"
0z"
0{"
0|"
0}"
0~"
0!#
0"#
0##
0$#
0%#
0&#
0'#
0(#
0)#
0*#
0+#
0,#
0-#
0.#
0/#
00#
$end
#5000
0!
0?!
0@!
#10000
1!
1?!
1@!
1B!
1l
0g"
1K"
1&
1?"
15"
0A!
1h
0h"
1R
1M"
1g
1Q
1O"
#15000
0!
0?!
0@!
#20000
1!
1?!
1@!
1P"
1@"
16"
0B!
0l
1!!
1k
1|
1Q"
0K"
16
1%
19
0&
1v"
0O"
05"
1F!
1~!
1A!
1d
0h
0R
1#
1R"
0M"
00"
0g
0Q"
0Q
1O"
0R"
#25000
0!
0?!
0@!
#30000
b10100000 "
b11100000 "
b11110000 "
1!
1L!
1D!
1H!
1?!
1@!
17"
1B!
1l
11!
1L"
0;"
18"
02"
1S!
1O!
1K!
0C"
1A"
1I
1&
0?"
0F!
0A!
0d
13"
14"
0#
1D"
1h"
#35000
0!
0?!
0@!
#40000
1!
1?!
1@!
1w"
1E"
0@"
0B!
0l
0k
1j
1.!
1K"
0A"
1C"
1F
1$
0%
0&
15"
1A!
1h
0h"
1R
1M"
1g
1Q"
1Q
0O"
1R"
#45000
0!
0?!
0@!
#50000
1!
1?!
1@!
1S"
0P"
1M!
1I!
1E!
1B!
1l
1~
1}
1"!
0|
1{
1*"
0K"
1="
15
06
1:
17
18
1&
1t"
0v"
1O"
1x!
1&"
1N"
1?"
05"
0A!
0h
1i
1+"
1n"
1f"
1/"
1h"
1S
0R
0M"
0t"
1l"
1j"
0g
0Q
1,"
0O"
#55000
0!
0?!
0@!
#60000
b1110000 "
b110000 "
b100000 "
1!
0L!
0D!
0H!
1?!
1@!
0w"
1o"
1m"
1k"
1i"
1@"
0B!
0l
1k
1'!
1(!
1)!
1*!
0.!
0="
0F
1B
1A
1@
1?
1%
0&
0N"
15"
1A!
1h
0i
0n"
0f"
0h"
0S
1R
1t"
0l"
0j"
#65000
0!
0?!
0@!
#70000
b0 "
1!
0C!
1?!
1@!
06"
0M!
0I!
0E!
1B!
1l
0~
0}
0"!
0!!
0*"
0C"
1Q!
09
0:
07
08
1&
0~!
0x!
0&"
0?"
05"
0A!
0h
0+"
1<"
1f!
1V!
0R
0D"
0/"
0,"
1H"
1e
1O
10"
#75000
0!
0?!
0@!
#80000
1!
1?!
1@!
11"
0E"
0@"
0B!
0l
0k
0j
0L"
12"
1g"
0Q!
1C"
0$
0%
0&
1A!
1h"
0<"
0f!
0V!
0H"
0e
0O
#85000
0!
0?!
0@!
#90000
1!
1?!
1@!
1u"
0o"
0m"
0k"
0i"
1B!
1l
0'!
0(!
0)!
0*!
1-!
0g"
1K"
1E
0B
0A
0@
0?
1&
1?"
15"
0A!
1h
0h"
1R
1M"
1g
1Q
1O"
#95000
0!
0?!
0@!
#100000
1!
1?!
1@!
1P"
1@"
0B!
0l
1k
1|
1T"
0Q"
0K"
16
1%
0&
1v"
0O"
05"
1F!
1A!
1d
0h
0R
1#
1U"
0R"
0M"
0g
0T"
1Q"
0Q
1O"
0U"
1R"
#105000
0!
0?!
0@!
#110000
1!
1?!
1@!
07"
1B!
1l
01!
1;"
08"
0S!
0O!
0K!
0C"
1A"
0I
1&
0?"
0F!
0A!
0d
1<"
03"
04"
1h"
0#
0h"
1H"
1e
1O
#115000
0!
0?!
0@!
#120000
1!
1?!
1@!
0@"
0B!
0l
0k
1g"
1C"
0A"
0%
0&
1A!
1h"
0<"
0H"
0e
0O
#125000
0!
0?!
0@!
#130000
1!
1?!
1@!
1w"
1B!
1l
1.!
0g"
1K"
1F
1&
1?"
15"
0A!
1h
0h"
1R
1M"
1g
1T"
0Q"
1Q
0O"
1U"
0R"
#135000
0!
0?!
0@!
#140000
1!
1?!
1@!
1V"
0S"
0P"
1@"
0B!
0l
1k
0|
0{
1z
0K"
14
05
06
1%
0&
1r"
0t"
0v"
1O"
05"
1F!
1A!
1d
0h
0R
1#
0M"
0g
0Q
0O"
#145000
0!
0?!
0@!
#150000
1!
1?!
1@!
1B!
1l
0C"
1A"
1&
0?"
0F!
0A!
0d
1<"
0#
1H"
1e
1O
#155000
0!
0?!
0@!
#160000
1!
1?!
1@!
0@"
0B!
0l
0k
1g"
1C"
0A"
0%
0&
1A!
1h"
0<"
0H"
0e
0O
#165000
0!
0?!
0@!
#170000
1!
1?!
1@!
0w"
0u"
1s"
1B!
1l
1,!
0-!
0.!
0g"
1K"
0F
0E
1D
1&
1?"
15"
0A!
1h
0h"
1R
1M"
1g
1Q
1O"
#175000
0!
0?!
0@!
#180000
1!
1?!
1@!
1P"
1@"
0B!
0l
1k
1|
1Q"
0K"
16
1%
0&
1v"
0O"
05"
1F!
1A!
1d
0h
0R
1#
1R"
0M"
0g
0Q"
0Q
1O"
0R"
#185000
0!
0?!
0@!
#190000
1!
1?!
1@!
1B!
1l
0C"
1A"
1&
0?"
0F!
0A!
0d
1<"
0#
1H"
1e
1O
#195000
0!
0?!
0@!
#200000
1!
1?!
1@!
0@"
0B!
0l
0k
1g"
1C"
0A"
0%
0&
1A!
1h"
0<"
0H"
0e
0O
#205000
0!
0?!
0@!
#210000
1!
1?!
1@!
1w"
1B!
1l
1.!
0g"
1K"
1F
1&
1?"
15"
0A!
1h
0h"
1R
1M"
1g
1Q"
1Q
0O"
1R"
#215000
0!
0?!
0@!
#220000
1!
1?!
1@!
1S"
0P"
1@"
0B!
0l
1k
0|
1{
0K"
15
06
1%
0&
1t"
0v"
1O"
05"
1F!
1A!
1d
0h
0R
1#
0M"
0g
0Q
0O"
#225000
0!
0?!
0@!
#230000
1!
1?!
1@!
1B!
1l
0C"
1A"
1&
0?"
0F!
0A!
0d
1<"
0#
1H"
1e
1O
#235000
0!
0?!
0@!
#240000
1!
1?!
1@!
0@"
0B!
0l
0k
1g"
1C"
0A"
0%
0&
1A!
1h"
0<"
0H"
0e
0O
#245000
0!
0?!
0@!
#250000
1!
1?!
1@!
0w"
1u"
1B!
1l
1-!
0.!
0g"
1K"
0F
1E
1&
1?"
15"
0A!
1h
0h"
1R
1M"
1g
1Q
1O"
#255000
0!
0?!
0@!
#260000
1!
1?!
1@!
1P"
1@"
0B!
0l
1k
1|
1W"
0T"
0Q"
0K"
16
1%
0&
1v"
0O"
05"
1F!
1A!
1d
0h
0R
1#
1X"
0U"
0R"
0M"
0g
0W"
1T"
1Q"
0Q
1O"
0X"
1U"
1R"
#265000
0!
0?!
0@!
#270000
1!
1?!
1@!
1B!
1l
0C"
1A"
1&
0?"
0F!
0A!
0d
1<"
0#
1H"
1e
1O
#275000
0!
0?!
0@!
#280000
1!
1?!
1@!
0@"
0B!
0l
0k
1g"
1C"
0A"
0%
0&
1A!
1h"
0<"
0H"
0e
0O
#285000
0!
0?!
0@!
#290000
1!
1?!
1@!
1w"
1B!
1l
1.!
0g"
1K"
1F
1&
1?"
15"
0A!
1h
0h"
1R
1M"
1g
1W"
0T"
0Q"
1Q
0O"
1X"
0U"
0R"
#295000
0!
0?!
0@!
#300000
1!
1?!
1@!
1Y"
0V"
0S"
0P"
1@"
0B!
0l
1k
0|
0{
0z
1y
1Z"
0W"
0K"
13
04
05
06
1%
0&
1p"
0X"
0r"
0t"
0v"
1O"
05"
1F!
1A!
1d
0h
0Z"
0R
1#
1["
1X"
0M"
0g
0Q
0["
0O"
#305000
0!
0?!
0@!
#310000
1!
1?!
1@!
1B!
1l
0C"
1A"
1&
0?"
0F!
0A!
0d
1<"
0#
1H"
1e
1O
#315000
0!
0?!
0@!
#320000
1!
1?!
1@!
0@"
0B!
0l
0k
1g"
1C"
0A"
0%
0&
1A!
1h"
0<"
0H"
0e
0O
#325000
0!
0?!
0@!
#330000
1!
1?!
1@!
0w"
0u"
0s"
1q"
1B!
1l
1+!
0,!
0-!
0.!
0g"
1K"
0F
0E
0D
1C
1&
1?"
15"
0A!
1h
0h"
1R
1M"
1g
1Q
1O"
#335000
0!
0?!
0@!
#340000
1!
1?!
1@!
1P"
1@"
0B!
0l
1k
1|
1Q"
0K"
16
1%
0&
1v"
0O"
05"
1F!
1A!
1d
0h
0R
1#
1R"
0M"
0g
0Q"
0Q
1O"
0R"
#345000
0!
0?!
0@!
#350000
1!
1?!
1@!
1B!
1l
0C"
1A"
1&
0?"
0F!
0A!
0d
1<"
0#
1H"
1e
1O
#355000
0!
0?!
0@!
#360000
1!
1?!
1@!
0@"
0B!
0l
0k
1g"
1C"
0A"
0%
0&
1A!
1h"
0<"
0H"
0e
0O
#365000
0!
0?!
0@!
#370000
1!
1?!
1@!
1w"
1B!
1l
1.!
0g"
1K"
1F
1&
1?"
15"
0A!
1h
0h"
1R
1M"
1g
1Q"
1Q
0O"
1R"
#375000
0!
0?!
0@!
#380000
1!
1?!
1@!
1S"
0P"
1@"
0B!
0l
1k
0|
1{
0K"
15
06
1%
0&
1t"
0v"
1O"
05"
1F!
1A!
1d
0h
0R
1#
0M"
0g
0Q
0O"
#385000
0!
0?!
0@!
#390000
1!
1?!
1@!
1B!
1l
0C"
1A"
1&
0?"
0F!
0A!
0d
1<"
0#
1H"
1e
1O
#395000
0!
0?!
0@!
#400000
1!
1?!
1@!
0@"
0B!
0l
0k
1g"
1C"
0A"
0%
0&
1A!
1h"
0<"
0H"
0e
0O
#405000
0!
0?!
0@!
#410000
1!
1?!
1@!
0w"
1u"
1B!
1l
1-!
0.!
0g"
1K"
0F
1E
1&
1?"
15"
0A!
1h
0h"
1R
1M"
1g
1Q
1O"
#415000
0!
0?!
0@!
#420000
1!
1?!
1@!
1P"
1@"
0B!
0l
1k
1|
1T"
0Q"
0K"
16
1%
0&
1v"
0O"
05"
1F!
1A!
1d
0h
0R
1#
1U"
0R"
0M"
0g
0T"
1Q"
0Q
1O"
0U"
1R"
#425000
0!
0?!
0@!
#430000
1!
1?!
1@!
1B!
1l
0C"
1A"
1&
0?"
0F!
0A!
0d
1<"
0#
1H"
1e
1O
#435000
0!
0?!
0@!
#440000
1!
1?!
1@!
0@"
0B!
0l
0k
1g"
1C"
0A"
0%
0&
1A!
1h"
0<"
0H"
0e
0O
#445000
0!
0?!
0@!
#450000
1!
1?!
1@!
1w"
1B!
1l
1.!
0g"
1K"
1F
1&
1?"
15"
0A!
1h
0h"
1R
1M"
1g
1T"
0Q"
1Q
0O"
1U"
0R"
#455000
0!
0?!
0@!
#460000
1!
1?!
1@!
1V"
0S"
0P"
1@"
0B!
0l
1k
0|
0{
1z
0K"
14
05
06
1%
0&
1r"
0t"
0v"
1O"
05"
1F!
1A!
1d
0h
0R
1#
0M"
0g
0Q
0O"
#465000
0!
0?!
0@!
#470000
1!
1?!
1@!
1B!
1l
0C"
1A"
1&
0?"
0F!
0A!
0d
1<"
0#
1H"
1e
1O
#475000
0!
0?!
0@!
#480000
1!
1?!
1@!
0@"
0B!
0l
0k
1g"
1C"
0A"
0%
0&
1A!
1h"
0<"
0H"
0e
0O
#485000
0!
0?!
0@!
#490000
1!
1?!
1@!
0w"
0u"
1s"
1B!
1l
1,!
0-!
0.!
0g"
1K"
0F
0E
1D
1&
1?"
15"
0A!
1h
0h"
1R
1M"
1g
1Q
1O"
#495000
0!
0?!
0@!
#500000
1!
1?!
1@!
1P"
1@"
0B!
0l
1k
1|
1Q"
0K"
16
1%
0&
1v"
0O"
05"
1F!
1A!
1d
0h
0R
1#
1R"
0M"
0g
0Q"
0Q
1O"
0R"
#505000
0!
0?!
0@!
#510000
1!
1?!
1@!
1B!
1l
0C"
1A"
1&
0?"
0F!
0A!
0d
1<"
0#
1H"
1e
1O
#515000
0!
0?!
0@!
#520000
1!
1?!
1@!
0@"
0B!
0l
0k
1g"
1C"
0A"
0%
0&
1A!
1h"
0<"
0H"
0e
0O
#525000
0!
0?!
0@!
#530000
1!
1?!
1@!
1w"
1B!
1l
1.!
0g"
1K"
1F
1&
1?"
15"
0A!
1h
0h"
1R
1M"
1g
1Q"
1Q
0O"
1R"
#535000
0!
0?!
0@!
#540000
1!
1?!
1@!
1S"
0P"
1@"
0B!
0l
1k
0|
1{
0K"
15
06
1%
0&
1t"
0v"
1O"
05"
1F!
1A!
1d
0h
0R
1#
0M"
0g
0Q
0O"
#545000
0!
0?!
0@!
#550000
1!
1?!
1@!
1B!
1l
0C"
1A"
1&
0?"
0F!
0A!
0d
1<"
0#
1H"
1e
1O
#555000
0!
0?!
0@!
#560000
1!
1?!
1@!
0@"
0B!
0l
0k
1g"
1C"
0A"
0%
0&
1A!
1h"
0<"
0H"
0e
0O
#565000
0!
0?!
0@!
#570000
1!
1?!
1@!
0w"
1u"
1B!
1l
1-!
0.!
0g"
1K"
0F
1E
1&
1?"
15"
0A!
1h
0h"
1R
1M"
1g
1Q
1O"
#575000
0!
0?!
0@!
