multiplex/simulation/qsim/multiplexador.msim.vcd
$comment
	File created using the following command:
		vcd file multiplexador.msim.vcd -direction
$end
$date
	Thu Apr 22 20:51:55 2021
$end
$version
	ModelSim Version 2020.1
$end
$timescale
	1ps
$end

$scope module multiplexador_vlg_vec_tst $end
$var reg 8 ! IN1 [7:0] $end
$var reg 8 " IN2 [7:0] $end
$var reg 1 # S $end
$var wire 1 $ OUT [7] $end
$var wire 1 % OUT [6] $end
$var wire 1 & OUT [5] $end
$var wire 1 ' OUT [4] $end
$var wire 1 ( OUT [3] $end
$var wire 1 ) OUT [2] $end
$var wire 1 * OUT [1] $end
$var wire 1 + OUT [0] $end

$scope module i1 $end
$var wire 1 , gnd $end
$var wire 1 - vcc $end
$var wire 1 . unknown $end
$var tri1 1 / devclrn $end
$var tri1 1 0 devpor $end
$var tri1 1 1 devoe $end
$var wire 1 2 S~combout $end
$var wire 1 3 inst7|inst3~0_combout $end
$var wire 1 4 inst5|inst3~0_combout $end
$var wire 1 5 inst4|inst3~0_combout $end
$var wire 1 6 inst6|inst3~0_combout $end
$var wire 1 7 inst3|inst3~0_combout $end
$var wire 1 8 inst2|inst3~0_combout $end
$var wire 1 9 inst1|inst3~0_combout $end
$var wire 1 : inst|inst3~0_combout $end
$var wire 1 ; IN2~combout [7] $end
$var wire 1 < IN2~combout [6] $end
$var wire 1 = IN2~combout [5] $end
$var wire 1 > IN2~combout [4] $end
$var wire 1 ? IN2~combout [3] $end
$var wire 1 @ IN2~combout [2] $end
$var wire 1 A IN2~combout [1] $end
$var wire 1 B IN2~combout [0] $end
$var wire 1 C IN1~combout [7] $end
$var wire 1 D IN1~combout [6] $end
$var wire 1 E IN1~combout [5] $end
$var wire 1 F IN1~combout [4] $end
$var wire 1 G IN1~combout [3] $end
$var wire 1 H IN1~combout [2] $end
$var wire 1 I IN1~combout [1] $end
$var wire 1 J IN1~combout [0] $end
$upscope $end
$upscope $end
$enddefinitions $end
#0
$dumpvars
b0 !
b1 "
0#
0+
0*
0)
0(
0'
0&
0%
0$
0,
1-
x.
1/
10
11
02
03
04
05
06
07
08
09
0:
1B
0A
0@
0?
0>
0=
0<
0;
0J
0I
0H
0G
0F
0E
0D
0C
$end
#64000
b1 !
b11 "
b10 "
1#
0B
1A
1J
12
19
1*
#128000
b11 !
b10 !
b11 "
0#
1B
0J
1I
02
#192000
b111 "
b101 "
b11 !
b100 "
1#
1J
0B
0A
1@
12
09
18
0*
1)
#256000
b111 !
b101 !
b100 !
b101 "
0#
1B
0J
0I
1H
02
#320000
b111 "
b101 !
b110 "
1#
1J
0B
1A
12
19
1*
#384000
b111 !
b110 !
b111 "
0#
1B
0J
1I
02
#448000
b1111 "
b1011 "
b1001 "
b111 !
b1000 "
1#
1J
0B
0A
0@
1?
12
09
08
17
0*
0)
1(
#512000
b1111 !
b1011 !
b1001 !
b1000 !
b1001 "
0#
1B
0J
0I
0H
1G
02
#576000
b1011 "
b1001 !
b1010 "
1#
1J
0B
1A
12
19
1*
#640000
b1011 !
b1010 !
b1011 "
0#
1B
0J
1I
02
#704000
b1111 "
b1101 "
b1011 !
b1100 "
1#
1J
0B
0A
1@
12
09
18
0*
1)
#768000
b1111 !
b1101 !
b1100 !
b1101 "
0#
1B
0J
0I
1H
02
#832000
b1111 "
b1101 !
b1110 "
1#
1J
0B
1A
12
19
1*
#896000
b1111 !
b1110 !
b1111 "
0#
1B
0J
1I
02
#960000
b11111 "
b10111 "
b10011 "
b10001 "
b1111 !
b10000 "
1#
1J
0B
0A
0@
0?
1>
12
09
08
07
16
0*
0)
0(
1'
