ripple_carry_8/simulation/qsim/ripplecarry8.msim.vcd
$comment
	File created using the following command:
		vcd file ripplecarry8.msim.vcd -direction
$end
$date
	Mon Mar 22 19:35:23 2021
$end
$version
	ModelSim Version 2020.1
$end
$timescale
	1ps
$end

$scope module ripplecarry8_vlg_vec_tst $end
$var reg 1 ! C_in $end
$var reg 8 " X [0:7] $end
$var reg 8 # Y [0:7] $end
$var wire 1 $ carry $end
$var wire 1 % s0 $end
$var wire 1 & s1 $end
$var wire 1 ' s2 $end
$var wire 1 ( s3 $end
$var wire 1 ) s4 $end
$var wire 1 * s5 $end
$var wire 1 + s6 $end
$var wire 1 , s7 $end

$scope module i1 $end
$var wire 1 - gnd $end
$var wire 1 . vcc $end
$var wire 1 / unknown $end
$var tri1 1 0 devclrn $end
$var tri1 1 1 devpor $end
$var tri1 1 2 devoe $end
$var wire 1 3 ~QUARTUS_CREATED_GND~I_combout $end
$var wire 1 4 C_in~input_o $end
$var wire 1 5 X[0]~input_o $end
$var wire 1 6 Y[0]~input_o $end
$var wire 1 7 somador0|inst3~combout $end
$var wire 1 8 X[1]~input_o $end
$var wire 1 9 Y[1]~input_o $end
$var wire 1 : somador1|inst3~combout $end
$var wire 1 ; somador1|inst7|inst2~combout $end
$var wire 1 < Y[2]~input_o $end
$var wire 1 = X[2]~input_o $end
$var wire 1 > somador2|inst3~combout $end
$var wire 1 ? X[3]~input_o $end
$var wire 1 @ somador2|inst|inst2~combout $end
$var wire 1 A Y[3]~input_o $end
$var wire 1 B somador3|inst3~combout $end
$var wire 1 C X[4]~input_o $end
$var wire 1 D somador3|inst|inst2~combout $end
$var wire 1 E Y[4]~input_o $end
$var wire 1 F somador4|inst3~combout $end
$var wire 1 G Y[5]~input_o $end
$var wire 1 H somador4|inst|inst2~combout $end
$var wire 1 I X[5]~input_o $end
$var wire 1 J somador5|inst3~combout $end
$var wire 1 K X[6]~input_o $end
$var wire 1 L Y[6]~input_o $end
$var wire 1 M somador5|inst7|inst2~combout $end
$var wire 1 N somador6|inst3~combout $end
$var wire 1 O X[7]~input_o $end
$var wire 1 P Y[7]~input_o $end
$var wire 1 Q somador7|inst3~combout $end
$var wire 1 R somador7|inst7|inst2~combout $end
$upscope $end
$upscope $end
$enddefinitions $end
#0
$dumpvars
0!
b0 "
b0 #
0$
0%
0&
0'
0(
0)
0*
0+
0,
0-
1.
x/
10
11
12
03
04
05
06
07
08
09
0:
0;
0<
0=
0>
0?
0@
0A
0B
0C
0D
0E
0F
0G
0H
0I
0J
0K
0L
0M
0N
0O
0P
0Q
0R
$end
#150000
b1 "
b11 "
b111 "
b1111 "
b11111 "
b111111 "
b1111111 "
b11111111 "
b1 #
b11 #
b111 #
b1111 #
b11111 #
b111111 #
b1111111 #
b11111111 #
1P
1L
1G
1E
1A
1<
19
16
1O
1K
1I
1C
1?
1=
18
15
1:
17
1>
1B
1F
1J
1Q
1N
1+
1,
1*
1)
1(
1'
1%
1&
#166000
1!
14
1;
1M
1R
1$
#300000
b11111110 "
b11111100 "
b11111000 "
b11110000 "
b11100000 "
b11000000 "
b10000000 "
b0 "
b11111110 #
b11111100 #
b11111000 #
b11110000 #
b11100000 #
b11000000 #
b10000000 #
b0 #
0P
0L
0G
0E
0A
0<
09
06
0O
0K
0I
0C
0?
0=
08
05
0:
07
0>
0B
0F
0J
0Q
0N
0+
0,
0*
0)
0(
0'
0%
0&
#332000
0!
04
0;
0M
0R
0$
#450000
b1 "
b11 "
b111 "
b1111 "
b11111 "
b111111 "
b1111111 "
b11111111 "
b1 #
b11 #
b111 #
b1111 #
b11111 #
b111111 #
b1111111 #
b11111111 #
1P
1L
1G
1E
1A
1<
19
16
1O
1K
1I
1C
1?
1=
18
15
1:
17
1>
1B
1F
1J
1Q
1N
1+
1,
1*
1)
1(
1'
1%
1&
#498000
1!
14
1;
1M
1R
1$
#600000
b11111110 "
b11111100 "
b11111000 "
b11110000 "
b11100000 "
b11000000 "
b10000000 "
b0 "
b11111110 #
b11111100 #
b11111000 #
b11110000 #
b11100000 #
b11000000 #
b10000000 #
b0 #
0P
0L
0G
0E
0A
0<
09
06
0O
0K
0I
0C
0?
0=
08
05
0:
07
0>
0B
0F
0J
0Q
0N
0+
0,
0*
0)
0(
0'
0%
0&
#664000
0!
04
0;
0M
0R
0$
#750000
b1 "
b11 "
b111 "
b1111 "
b11111 "
b111111 "
b1111111 "
b11111111 "
b1 #
b11 #
b111 #
b1111 #
b11111 #
b111111 #
b1111111 #
b11111111 #
1P
1L
1G
1E
1A
1<
19
16
1O
1K
1I
1C
1?
1=
18
15
1:
17
1>
1B
1F
1J
1Q
1N
1+
1,
1*
1)
1(
1'
1%
1&
#830000
1!
14
1;
1M
1R
1$
#900000
b11111110 "
b11111100 "
b11111000 "
b11110000 "
b11100000 "
b11000000 "
b10000000 "
b0 "
b11111110 #
b11111100 #
b11111000 #
b11110000 #
b11100000 #
b11000000 #
b10000000 #
b0 #
0P
0L
0G
0E
0A
0<
09
06
0O
0K
0I
0C
0?
0=
08
05
0:
07
0>
0B
0F
0J
0Q
0N
0+
0,
0*
0)
0(
0'
0%
0&
#996000
0!
04
0;
0M
0R
0$
