ripple2/simulation/qsim/ripple2.msim.vcd
$comment
	File created using the following command:
		vcd file ripple2.msim.vcd -direction
$end
$date
	Mon Mar 22 23:16:19 2021
$end
$version
	ModelSim Version 2020.1
$end
$timescale
	1ps
$end

$scope module ripple2_vlg_vec_tst $end
$var reg 1 ! C_in $end
$var reg 8 " X [0:7] $end
$var reg 8 # Y [0:7] $end
$var wire 1 $ carry $end
$var wire 1 % s0 $end
$var wire 1 & s1 $end
$var wire 1 ' s2 $end
$var wire 1 ( s3 $end
$var wire 1 ) s4 $end
$var wire 1 * s5 $end
$var wire 1 + s6 $end
$var wire 1 , s7 $end

$scope module i1 $end
$var wire 1 - gnd $end
$var wire 1 . vcc $end
$var wire 1 / unknown $end
$var tri1 1 0 devclrn $end
$var tri1 1 1 devpor $end
$var tri1 1 2 devoe $end
$var wire 1 3 s0~output_o $end
$var wire 1 4 s1~output_o $end
$var wire 1 5 s2~output_o $end
$var wire 1 6 s3~output_o $end
$var wire 1 7 s4~output_o $end
$var wire 1 8 s5~output_o $end
$var wire 1 9 s6~output_o $end
$var wire 1 : s7~output_o $end
$var wire 1 ; carry~output_o $end
$var wire 1 < C_in~input_o $end
$var wire 1 = Y[0]~input_o $end
$var wire 1 > X[0]~input_o $end
$var wire 1 ? inst|somador0|inst3~0_combout $end
$var wire 1 @ X[1]~input_o $end
$var wire 1 A Y[1]~input_o $end
$var wire 1 B inst|somador0|inst|inst2~combout $end
$var wire 1 C inst|somador1|inst3~0_combout $end
$var wire 1 D Y[2]~input_o $end
$var wire 1 E inst|somador0|inst7|inst2~combout $end
$var wire 1 F inst|somador1|inst|inst2~combout $end
$var wire 1 G X[2]~input_o $end
$var wire 1 H inst|somador2|inst3~0_combout $end
$var wire 1 I inst|somador1|inst7|inst2~combout $end
$var wire 1 J inst|somador2|inst|inst2~combout $end
$var wire 1 K X[3]~input_o $end
$var wire 1 L Y[3]~input_o $end
$var wire 1 M inst|somador3|inst3~0_combout $end
$var wire 1 N inst|somador3|inst|inst2~combout $end
$var wire 1 O Y[4]~input_o $end
$var wire 1 P X[4]~input_o $end
$var wire 1 Q inst|somador2|inst7|inst2~combout $end
$var wire 1 R inst|somador4|inst3~0_combout $end
$var wire 1 S X[5]~input_o $end
$var wire 1 T inst|somador4|inst|inst2~combout $end
$var wire 1 U Y[5]~input_o $end
$var wire 1 V inst|somador3|inst7|inst2~combout $end
$var wire 1 W inst|somador5|inst3~0_combout $end
$var wire 1 X inst|somador4|inst7|inst2~combout $end
$var wire 1 Y X[6]~input_o $end
$var wire 1 Z Y[6]~input_o $end
$var wire 1 [ inst|somador5|inst|inst2~combout $end
$var wire 1 \ inst|somador6|inst3~0_combout $end
$var wire 1 ] inst|somador5|inst7|inst2~combout $end
$var wire 1 ^ Y[7]~input_o $end
$var wire 1 _ X[7]~input_o $end
$var wire 1 ` inst|somador6|inst|inst2~combout $end
$var wire 1 a inst|somador7|inst3~0_combout $end
$var wire 1 b inst|somador7|inst7|inst2~combout $end
$upscope $end
$upscope $end
$enddefinitions $end
#0
$dumpvars
0!
b0 "
b0 #
x$
x%
x&
x'
x(
x)
x*
x+
x,
0-
1.
x/
10
11
12
x3
x4
x5
x6
x7
x8
x9
x:
x;
0<
0=
0>
x?
0@
0A
xB
xC
0D
xE
xF
0G
xH
xI
xJ
0K
0L
xM
xN
0O
0P
xQ
xR
0S
xT
0U
xV
xW
xX
0Y
0Z
x[
x\
x]
0^
0_
x`
xa
xb
$end
#1510
0W
#1514
0[
#3597
0N
#3612
0H
#3683
0J
#3699
0R
0T
#3724
0?
#3783
0a
#3784
0C
#3788
0F
#3799
0M
#3825
0`
#3827
0\
#3975
0B
#3979
0E
#4626
0I
#4633
0V
#4637
0Q
#4981
0X
#5280
0]
#5425
08
0*
#6044
0b
#6979
04
0&
#7283
03
0%
#7469
06
0(
#7723
07
0)
#8061
09
0+
#8067
0:
0,
#8284
05
0'
#9547
0;
0$
#10500
1!
#11096
1<
#14528
1E
#15119
1I
#15136
1V
#15138
1Q
#15460
1X
#15610
b1 "
b11 "
b111 "
b1111 "
b10000 #
b110000 #
b1110000 #
b11110000 #
#15736
1]
#16204
1P
1Y
1_
1=
1L
#16206
1S
1A
1D
#16461
1b
#17693
1W
#17711
1[
#18192
0]
#18956
0b
#19360
1b
#19534
1M
#19536
1N
#19593
1H
#19609
1J
#19628
0Q
#19675
0X
#19676
1T
#19677
1R
#19710
1C
0I
#19714
1F
#19753
1`
#19825
1?
#19842
1B
#19857
0E
#20029
1;
1$
#20057
0b
#20066
1a
#20136
0C
#20415
1\
#20417
1]
#20440
0W
#20496
1I
#21000
0!
#21068
0M
#21137
0a
#21142
1b
#21599
18
1*
#21761
0<
#23398
13
1%
#23678
17
1)
#24211
15
1'
#24355
08
0*
#24658
19
1+
#25408
1C
#25433
0?
#25439
1E
#26038
0I
#26041
0H
#26046
0V
#26049
1Q
#26359
0R
#26371
1X
#26520
1W
#26643
1M
#26646
0]
#27114
0\
#27374
1a
#27410
0b
#28624
14
1&
#28992
03
0%
#30381
16
1(
#30383
07
0)
#30426
18
1*
#30713
05
0'
#30913
0;
0$
#31220
b1110 "
b1100 "
b1000 "
b0 "
b11100000 #
b11000000 #
b10000000 #
b0 #
#31348
09
0+
#31500
1!
#31601
1:
1,
#31979
0P
0Y
0_
0=
0L
#31981
0S
0A
0D
#32096
1<
#33491
0W
#33495
0[
#33849
1\
#34006
1]
#34726
0a
#34731
1b
#35418
0b
#35497
1?
#35523
0C
#35533
0E
#35574
0M
#35576
0N
#35664
0J
#35676
0Q
#35678
0T
#35680
0X
#35767
1I
#35769
0F
#35783
0\
#35785
0`
#35951
0?
#35954
0B
#35959
1E
#36129
1b
#36180
0I
#36453
0]
#36550
1I
#36567
1V
#36569
1Q
#36891
1X
#37167
1]
#37217
0b
#37406
08
0*
#37892
1b
#38718
04
0&
#39010
0:
0,
#39244
06
0(
#39697
1;
1$
#42000
0!
#42761
0<
#46444
0E
#46830
b10000 "
b110000 "
b1110000 "
b11110000 "
b1 #
b11110001 "
b11110011 "
b11110111 "
b11111111 "
#47091
0I
#47098
0V
#47102
0Q
#47424
1>
1@
1K
1P
1Y
1_
1^
#47426
1G
1S
#47446
0X
#47745
0]
#48509
0b
#48931
1[
#49422
1]
#50147
1b
#50579
1a
#50648
1J
#50773
1F
#50779
1I
#50806
1Q
#50871
1E
#50872
1B
#50896
1T
1X
#50917
1N
#50951
1\
#50964
1V
#50973
1`
#51118
0X
#51126
1R
#51176
1C
#51277
0b
#51470
0I
#51512
0R
#51518
1X
#51524
0V
#51642
0]
#51998
1W
#52075
1M
#52261
0\
#52401
1b
#52500
1!
#53096
1<
#54392
14
1&
#54806
1:
1,
#55813
16
1(
#55904
18
1*
#56497
1?
#56523
0C
#56533
0E
#57172
1I
#57176
1H
#57188
1V
#57191
0Q
#57535
0X
#57542
1R
#57637
0W
#57744
0M
#57835
1]
#58275
1\
#58565
0b
#59718
04
0&
#60070
13
1%
#61414
06
0(
#61543
17
1)
#61552
08
0*
#61794
15
1'
#62068
0;
0$
#62440
b11101111 "
b11001111 "
b10001111 "
b1111 "
b0 #
b1110 "
b1100 "
b1000 "
b0 "
#62518
19
1+
#63000
0!
#63199
0>
0@
0K
0P
0Y
0_
0^
#63201
0G
0S
#63761
0<
#64715
0[
#65059
0\
#65216
0]
#65975
1b
#66665
0J
#66793
0F
#66794
0I
#66813
0H
#66824
1Q
#66898
0R
0T
#66901
1X
#66923
1E
0?
#66925
0B
#66973
0N
#66982
0a
#67001
0V
#67005
0`
#67136
0X
#67339
0b
#67444
0E
#67514
1I
#67631
1X
#67632
1V
#67668
1]
#68091
0I
#68098
0V
#68102
0Q
#68393
1b
#68446
0X
#68745
0]
#69293
09
0+
#69509
0b
#70482
03
0%
#70922
07
0)
#71266
0:
0,
#71485
05
0'
#109270
b10 #
b110 #
b1110 #
b11110 #
b111110 #
b1111110 #
b11111110 #
b10000 "
b110000 "
b1110000 "
b11110000 "
b11111111 #
b11110001 "
b11110011 "
b11110111 "
b11111111 "
#109864
1=
1L
1Z
1^
1>
1@
1K
1P
1Y
1_
#109866
1A
1D
1O
1U
1G
1S
#111353
1W
#113246
1H
#113337
1R
#113339
1a
#113370
1C
#113401
1M
#113406
1\
#113485
1?
#115259
18
1*
#115500
1!
#116096
1<
#116586
14
1&
#117058
13
1%
#117139
16
1(
#117338
17
1)
#117566
1:
1,
#117649
19
1+
#117864
15
1'
#119528
1E
#120119
1I
#120136
1V
#120138
1Q
#120460
1X
#120736
1]
#121461
1b
#124880
b11111101 #
b11111001 #
b11110001 #
b11100001 #
b11000001 #
b10000001 #
b1 #
b11101111 "
b11001111 "
b10001111 "
b1111 "
b0 #
b1110 "
b1100 "
b1000 "
b0 "
#125029
1;
1$
#125639
0=
0L
0Z
0^
0>
0@
0K
0P
0Y
0_
#125641
0A
0D
0O
0U
0G
0S
#126000
0!
#126761
0<
#127151
0W
#129253
0H
#129338
0R
#129422
0a
#129425
0C
#129438
0M
#129466
0\
#129611
0?
#130444
0E
#131066
08
0*
#131091
0I
#131098
0V
#131102
0Q
#131446
0X
#131745
0]
#132509
0b
#132620
04
0&
#133108
06
0(
#133170
03
0%
#133362
07
0)
#133700
09
0+
#133706
0:
0,
#133925
05
0'
#136012
0;
0$
#136500
1!
#137096
1<
#140490
b10 #
b110 #
b1110 #
b11110 #
b111110 #
b1111110 #
b11111110 #
b10000 "
b110000 "
b1110000 "
b11110000 "
b11111111 #
b11110001 "
b11110011 "
b11110111 "
b11111111 "
#140528
1E
#141084
1=
1L
1Z
1^
1>
1@
1K
1P
1Y
1_
#141086
1A
1D
1O
1U
1G
1S
#141119
1I
#141136
1V
#141138
1Q
#141460
1X
#141736
1]
#142324
1W
#142461
1b
#144239
1a
#144414
1M
#144440
1R
#144473
1H
#144532
1?
#144611
1\
#144681
1C
#146029
1;
1$
#146230
18
1*
#147000
0!
#147761
0<
#147897
14
1&
#148105
13
1%
#148152
16
1(
#148441
17
1)
#148466
1:
1,
#148854
19
1+
#149091
15
1'
#151444
0E
#152091
0I
#152098
0V
#152102
0Q
#152446
0X
#152745
0]
#153509
0b
#156100
b11111101 #
b11111001 #
b11110001 #
b11100001 #
b11000001 #
b10000001 #
b1 #
b11101111 "
b11001111 "
b10001111 "
b1111 "
b0 #
b1110 "
b1100 "
b1000 "
b0 "
#156859
0=
0L
0Z
0^
0>
0@
0K
0P
0Y
0_
#156861
0A
0D
0O
0U
0G
0S
#157012
0;
0$
#157500
1!
#158096
1<
#158104
0W
#160297
0a
#160454
0M
#160499
0R
#160547
0H
#160583
0?
#160663
0\
#160743
0C
#161528
1E
#162019
08
0*
#162119
1I
#162136
1V
#162138
1Q
#162460
1X
#162736
1]
#163461
1b
#163938
04
0&
#164124
06
0(
#164142
03
0%
#164523
07
0)
#164581
0:
0,
#164897
09
0+
#165219
05
0'
#167029
1;
1$
#168000
0!
#168761
0<
#171710
b10 #
b110 #
b1110 #
b11110 #
b111110 #
b1111110 #
b11111110 #
b10000 "
b110000 "
b1110000 "
b11110000 "
b11111111 #
b11110001 "
b11110011 "
b11110111 "
b11111111 "
#172304
1=
1L
1Z
1^
1>
1@
1K
1P
1Y
1_
#172306
1A
1D
1O
1U
1G
1S
#172444
0E
#173091
0I
#173098
0V
#173102
0Q
#173446
0X
#173745
0]
#173793
1W
#174509
0b
#175686
1H
#175777
1R
#175779
1a
#175810
1C
#175841
1M
#175846
1\
#175925
1?
#177699
18
1*
#178012
0;
0$
#178500
1!
#179026
14
1&
#179096
1<
#179498
13
1%
#179579
16
1(
#179778
17
1)
#180006
1:
1,
#180089
19
1+
#180304
15
1'
#182528
1E
#183119
1I
#183136
1V
#183138
1Q
#183460
1X
#183736
1]
#184461
1b
#187320
b11111101 #
b11111001 #
b11110001 #
b11100001 #
b11000001 #
b10000001 #
b1 #
b11101111 "
b11001111 "
b10001111 "
b1111 "
b0 #
b1110 "
b1100 "
b1000 "
b0 "
#188029
1;
1$
#188079
0=
0L
0Z
0^
0>
0@
0K
0P
0Y
0_
#188081
0A
0D
0O
0U
0G
0S
#189000
0!
#189591
0W
#189761
0<
#191693
0H
#191778
0R
#191862
0a
#191865
0C
#191878
0M
#191906
0\
#192051
0?
#193444
0E
#193506
08
0*
#194091
0I
#194098
0V
#194102
0Q
#194446
0X
#194745
0]
#195060
04
0&
#195509
0b
#195548
06
0(
#195610
03
0%
#195802
07
0)
#196140
09
0+
#196146
0:
0,
#196365
05
0'
#199012
0;
0$
#199500
1!
#200096
1<
#202930
b10 #
b110 #
b1110 #
b11110 #
b111110 #
b1111110 #
b11111110 #
b10000 "
b110000 "
b1110000 "
b11110000 "
b11111111 #
b11110001 "
b11110011 "
b11110111 "
b11111111 "
#203524
1=
1L
1Z
1^
1>
1@
1K
1P
1Y
1_
#203526
1A
1D
1O
1U
1G
1S
#203528
1E
#204119
1I
#204136
1V
#204138
1Q
#204460
1X
#204736
1]
#204764
1W
#205461
1b
#206679
1a
#206854
1M
#206880
1R
#206913
1H
#206972
1?
#207051
1\
#207121
1C
#208670
18
1*
#209029
1;
1$
#210000
0!
#210337
14
1&
#210545
13
1%
#210592
16
1(
#210761
0<
#210881
17
1)
#210906
1:
1,
#211294
19
1+
#211531
15
1'
#214444
0E
#215091
0I
#215098
0V
#215102
0Q
#215446
0X
#215745
0]
#216509
0b
#218540
b11111101 #
b11111001 #
b11110001 #
b11100001 #
b11000001 #
b10000001 #
b1 #
b11101111 "
b11001111 "
b10001111 "
b1111 "
b0 #
b1110 "
b1100 "
b1000 "
b0 "
#219299
0=
0L
0Z
0^
0>
0@
0K
0P
0Y
0_
#219301
0A
0D
0O
0U
0G
0S
#220012
0;
0$
#220500
1!
#220544
0W
#221096
1<
#222737
0a
#222894
0M
#222939
0R
#222987
0H
#223023
0?
#223103
0\
#223183
0C
#224459
08
0*
#224528
1E
#225119
1I
#225136
1V
#225138
1Q
#225460
1X
#225736
1]
#226378
04
0&
#226461
1b
#226564
06
0(
#226582
03
0%
#226963
07
0)
#227021
0:
0,
#227337
09
0+
#227659
05
0'
#230029
1;
1$
#231000
0!
#231761
0<
#234150
b10 #
b110 #
b1110 #
b11110 #
b111110 #
b1111110 #
b11111110 #
b10000 "
b110000 "
b1110000 "
b11110000 "
b11111111 #
b11110001 "
b11110011 "
b11110111 "
b11111111 "
#234744
1=
1L
1Z
1^
1>
1@
1K
1P
1Y
1_
#234746
1A
1D
1O
1U
1G
1S
#235444
0E
#235984
1W
#236091
0I
#236098
0V
#236102
0Q
#236446
0X
#236745
0]
#237509
0b
#238126
1H
#238217
1R
#238219
1a
#238250
1C
#238281
1M
#238286
1\
#238365
1?
#239890
18
1*
#241012
0;
0$
#241466
14
1&
#241500
1!
#241938
13
1%
#242019
16
1(
#242096
1<
#242218
17
1)
#242446
1:
1,
#242529
19
1+
#242744
15
1'
#245528
1E
#246119
1I
#246136
1V
#246138
1Q
#246460
1X
#246736
1]
#247461
1b
#249760
b11111101 #
b11111001 #
b11110001 #
b11100001 #
b11000001 #
b10000001 #
b1 #
b11101111 "
b11001111 "
b10001111 "
b1111 "
b0 #
b1110 "
b1100 "
b1000 "
b0 "
#250519
0=
0L
0Z
0^
0>
0@
0K
0P
0Y
0_
#250521
0A
0D
0O
0U
0G
0S
#251029
1;
1$
#252000
0!
#252031
0W
#252761
0<
#254133
0H
#254218
0R
#254302
0a
#254305
0C
#254318
0M
#254346
0\
#254491
0?
#255946
08
0*
#256444
0E
#257091
0I
#257098
0V
#257102
0Q
#257446
0X
#257500
04
0&
#257745
0]
#257988
06
0(
#258050
03
0%
#258242
07
0)
#258509
0b
#258580
09
0+
#258586
0:
0,
#258805
05
0'
#262012
0;
0$
#262500
1!
#263096
1<
#265370
b10 #
b110 #
b1110 #
b11110 #
b111110 #
b1111110 #
b11111110 #
b10000 "
b110000 "
b1110000 "
b11110000 "
b11111111 #
b11110001 "
b11110011 "
b11110111 "
b11111111 "
#265964
1=
1L
1Z
1^
1>
1@
1K
1P
1Y
1_
#265966
1A
1D
1O
1U
1G
1S
#266528
1E
#267119
1I
#267136
1V
#267138
1Q
#267453
1W
#267460
1X
#267736
1]
#268461
1b
#269119
1a
#269294
1M
#269320
1R
#269353
1H
#269412
1?
#269491
1\
#269561
1C
#271359
18
1*
#272029
1;
1$
#272777
14
1&
#272985
13
1%
#273000
0!
#273032
16
1(
#273321
17
1)
#273346
1:
1,
#273734
19
1+
#273761
0<
#273971
15
1'
#277444
0E
#278091
0I
#278098
0V
#278102
0Q
#278446
0X
#278745
0]
#279509
0b
#280980
b11111101 #
b11111001 #
b11110001 #
b11100001 #
b11000001 #
b10000001 #
b1 #
b11101111 "
b11001111 "
b10001111 "
b1111 "
b0 #
b1110 "
b1100 "
b1000 "
b0 "
#281739
0=
0L
0Z
0^
0>
0@
0K
0P
0Y
0_
#281741
0A
0D
0O
0U
0G
0S
#282984
0W
#283012
0;
0$
#283500
1!
#284096
1<
#285177
0a
#285334
0M
#285379
0R
#285427
0H
#285463
0?
#285543
0\
#285623
0C
#286899
08
0*
#287528
1E
#288119
1I
#288136
1V
#288138
1Q
#288460
1X
#288736
1]
#288818
04
0&
#289004
06
0(
#289022
03
0%
#289403
07
0)
#289461
0:
0,
1b
#289777
09
0+
#290099
05
0'
#293029
1;
1$
#294000
0!
#294761
0<
#296590
b10 #
b110 #
b1110 #
b11110 #
b111110 #
b1111110 #
b11111110 #
b10000 "
b110000 "
b1110000 "
b11110000 "
b11111111 #
b11110001 "
b11110011 "
b11110111 "
b11111111 "
#297184
1=
1L
1Z
1^
1>
1@
1K
1P
1Y
1_
#297186
1A
1D
1O
1U
1G
1S
#298424
1W
#298444
0E
#299091
0I
#299098
0V
#299102
0Q
#299446
0X
#299745
0]
#300566
1H
#300657
1R
#300659
1a
#300690
1C
#300694
0b
#300721
1M
#300726
1\
#300805
1?
#302330
18
1*
#303906
14
1&
#304197
0;
0$
#304378
13
1%
#304459
16
1(
#304500
1!
#304658
17
1)
#304886
1:
1,
#304969
19
1+
#305096
1<
#305184
15
1'
#308528
1E
#309119
1I
#309136
1V
#309138
1Q
#309460
1X
#309736
1]
#310461
1b
#312200
b11111101 #
b11111001 #
b11110001 #
b11100001 #
b11000001 #
b10000001 #
b1 #
b11101111 "
b11001111 "
b10001111 "
b1111 "
b0 #
b1110 "
b1100 "
b1000 "
b0 "
#312959
0=
0L
0Z
0^
0>
0@
0K
0P
0Y
0_
#312961
0A
0D
0O
0U
0G
0S
#314029
1;
1$
#314471
0W
#315000
0!
#315761
0<
#316573
0H
#316658
0R
#316742
0a
#316745
0C
#316758
0M
#316786
0\
#316931
0?
#318386
08
0*
#319444
0E
#319940
04
0&
#320091
0I
#320098
0V
#320102
0Q
#320428
06
0(
#320446
0X
#320490
03
0%
#320682
07
0)
#320745
0]
#321020
09
0+
#321026
0:
0,
#321245
05
0'
#321509
0b
#325012
0;
0$
#325500
1!
#326096
1<
#327810
b10 #
b110 #
b1110 #
b11110 #
b111110 #
b1111110 #
b11111110 #
b10000 "
b110000 "
b1110000 "
b11110000 "
b11111111 #
b11110001 "
b11110011 "
b11110111 "
b11111111 "
#328404
1=
1L
1Z
1^
1>
1@
1K
1P
1Y
1_
#328406
1A
1D
1O
1U
1G
1S
#329528
1E
#329893
1W
#330119
1I
#330136
1V
#330138
1Q
#330460
1X
#330736
1]
#331559
1a
#331734
1M
#331760
1R
#331793
1H
#331852
1?
#331915
1b
#331931
1\
#332001
1C
#333799
18
1*
#335217
14
1&
#335425
13
1%
#335472
16
1(
#335483
1;
1$
#335761
17
1)
#335786
1:
1,
#336000
0!
#336174
19
1+
#336411
15
1'
#336761
0<
#340444
0E
#341091
0I
#341098
0V
#341102
0Q
#341446
0X
#341745
0]
#342509
0b
#343420
b11111101 #
b11111001 #
b11110001 #
b11100001 #
b11000001 #
b10000001 #
b1 #
b11101111 "
b11001111 "
b10001111 "
b1111 "
b0 #
b1110 "
b1100 "
b1000 "
b0 "
#344179
0=
0L
0Z
0^
0>
0@
0K
0P
0Y
0_
#344181
0A
0D
0O
0U
0G
0S
#345424
0W
#346012
0;
0$
#346500
1!
#347096
1<
#347617
0a
#347774
0M
#347819
0R
#347867
0H
#347903
0?
#347983
0\
#348063
0C
#349339
08
0*
#350528
1E
#351119
1I
#351136
1V
#351138
1Q
#351258
04
0&
#351444
06
0(
#351460
1X
#351462
03
0%
#351736
1]
#351843
07
0)
#351901
0:
0,
#352217
09
0+
#352461
1b
#352539
05
0'
#356029
1;
1$
#357000
0!
#357761
0<
#359030
b10 #
b110 #
b1110 #
b11110 #
b111110 #
b1111110 #
b11111110 #
b10000 "
b110000 "
b1110000 "
b11110000 "
b11111111 #
b11110001 "
b11110011 "
b11110111 "
b11111111 "
#359624
1=
1L
1Z
1^
1>
1@
1K
1P
1Y
1_
#359626
1A
1D
1O
1U
1G
1S
#360864
1W
#361444
0E
#362091
0I
#362098
0V
#362102
0Q
#362446
0X
#362745
0]
#362779
1a
#363006
1H
#363097
1R
#363130
1C
#363161
1M
#363166
1\
#363245
1?
#363509
0b
#364770
18
1*
#366346
14
1&
#366818
13
1%
#366899
16
1(
#367006
1:
1,
#367012
0;
0$
#367098
17
1)
#367409
19
1+
#367500
1!
#367624
15
1'
#368096
1<
#371528
1E
#372119
1I
#372136
1V
#372138
1Q
#372460
1X
#372736
1]
#373461
1b
#374640
b11111101 #
b11111001 #
b11110001 #
b11100001 #
b11000001 #
b10000001 #
b1 #
b11101111 "
b11001111 "
b10001111 "
b1111 "
b0 #
b1110 "
b1100 "
b1000 "
b0 "
#375399
0=
0L
0Z
0^
0>
0@
0K
0P
0Y
0_
#375401
0A
0D
0O
0U
0G
0S
#376911
0W
#377029
1;
1$
#378000
0!
#378761
0<
#379013
0H
#379098
0R
#379182
0a
#379185
0C
#379198
0M
#379226
0\
#379371
0?
#380826
08
0*
#382380
04
0&
#382444
0E
#382868
06
0(
#382930
03
0%
#383091
0I
#383098
0V
#383102
0Q
#383122
07
0)
#383446
0X
#383460
09
0+
#383466
0:
0,
#383685
05
0'
#383745
0]
#384509
0b
#388012
0;
0$
#388500
1!
#389096
1<
#390250
b10 #
b110 #
b1110 #
b11110 #
b111110 #
b1111110 #
b11111110 #
b10000 "
b110000 "
b1110000 "
b11110000 "
b11111111 #
b11110001 "
b11110011 "
b11110111 "
b11111111 "
#390844
1=
1L
1Z
1^
1>
1@
1K
1P
1Y
1_
#390846
1A
1D
1O
1U
1G
1S
#392333
1W
#392528
1E
#393119
1I
#393136
1V
#393138
1Q
#393460
1X
#393736
1]
#394174
1M
#394200
1R
#394233
1H
#394292
1?
#394319
1a
#394371
1\
#394441
1C
#394461
1b
#396239
18
1*
#397657
14
1&
#397865
13
1%
#397912
16
1(
#398029
1;
1$
#398201
17
1)
#398546
1:
1,
#398614
19
1+
#398851
15
1'
#399000
0!
#399761
0<
#403444
0E
#404091
0I
#404098
0V
#404102
0Q
#404446
0X
#404745
0]
#405509
0b
#405860
b11111101 #
b11111001 #
b11110001 #
b11100001 #
b11000001 #
b10000001 #
b1 #
b11101111 "
b11001111 "
b10001111 "
b1111 "
b0 #
b1110 "
b1100 "
b1000 "
b0 "
#406619
0=
0L
0Z
0^
0>
0@
0K
0P
0Y
0_
#406621
0A
0D
0O
0U
0G
0S
#407864
0W
#409012
0;
0$
#409500
1!
#410057
0a
#410096
1<
#410214
0M
#410259
0R
#410307
0H
#410343
0?
#410423
0\
#410503
0C
#411779
08
0*
#413528
1E
#413698
04
0&
#413884
06
0(
#413902
03
0%
#414119
1I
#414136
1V
#414138
1Q
#414283
07
0)
#414341
0:
0,
#414460
1X
#414657
09
0+
#414736
1]
#414979
05
0'
#415461
1b
#419029
1;
1$
#420000
0!
#420761
0<
#421470
b10 #
b110 #
b1110 #
b11110 #
b111110 #
b1111110 #
b11111110 #
b10000 "
b110000 "
b1110000 "
b11110000 "
b11111111 #
b11110001 "
b11110011 "
b11110111 "
b11111111 "
#422064
1=
1L
1Z
1^
1>
1@
1K
1P
1Y
1_
#422066
1A
1D
1O
1U
1G
1S
#423304
1W
#424444
0E
#425091
0I
#425098
0V
#425102
0Q
#425219
1a
#425420
1R
#425446
1H
0X
#425570
1C
#425591
1\
#425601
1M
#425685
1?
#425745
0]
#426509
0b
#427210
18
1*
#428786
14
1&
#429258
13
1%
#429339
16
1(
#429421
17
1)
#429446
1:
1,
#429834
19
1+
#430012
0;
0$
#430064
15
1'
#430500
1!
#431096
1<
#434528
1E
#435119
1I
#435136
1V
#435138
1Q
#435460
1X
#435736
1]
#436461
1b
#437080
b11111101 #
b11111001 #
b11110001 #
b11100001 #
b11000001 #
b10000001 #
b1 #
b11101111 "
b11001111 "
b10001111 "
b1111 "
b0 #
b1110 "
b1100 "
b1000 "
b0 "
#437839
0=
0L
0Z
0^
0>
0@
0K
0P
0Y
0_
#437841
0A
0D
0O
0U
0G
0S
#439351
0W
#440029
1;
1$
#441000
0!
#441453
0H
#441538
0R
#441622
0a
#441625
0C
#441638
0M
#441666
0\
#441761
0<
#441811
0?
#443266
08
0*
#444820
04
0&
#445308
06
0(
#445370
03
0%
#445444
0E
#445562
07
0)
#445900
09
0+
#445906
0:
0,
#446091
0I
#446098
0V
#446102
0Q
#446125
05
0'
#446446
0X
#446745
0]
#447509
0b
#451012
0;
0$
#451500
1!
#452096
1<
#452690
b10 #
b110 #
b1110 #
b11110 #
b111110 #
b1111110 #
b11111110 #
b10000 "
b110000 "
b1110000 "
b11110000 "
b11111111 #
b11110001 "
b11110011 "
b11110111 "
b11111111 "
#453284
1=
1L
1Z
1^
1>
1@
1K
1P
1Y
1_
#453286
1A
1D
1O
1U
1G
1S
#454773
1W
#455528
1E
#456119
1I
#456136
1V
#456138
1Q
#456458
1R
#456614
1M
#456673
1H
#456732
1?
#456736
1]
#456756
1X
#456759
1a
#456826
1\
#456881
1C
#457461
1b
#458679
18
1*
#460097
14
1&
#460305
13
1%
#460352
16
1(
#460459
17
1)
#460986
1:
1,
#461029
1;
1$
#461069
19
1+
#461291
15
1'
#462000
0!
#462761
0<
#466444
0E
#467091
0I
#467098
0V
#467102
0Q
#467446
0X
#467745
0]
#468300
b11111101 #
b11111001 #
b11110001 #
b11100001 #
b11000001 #
b10000001 #
b1 #
b11101111 "
b11001111 "
b10001111 "
b1111 "
b0 #
b1110 "
b1100 "
b1000 "
b0 "
#468509
0b
#469059
0=
0L
0Z
0^
0>
0@
0K
0P
0Y
0_
#469061
0A
0D
0O
0U
0G
0S
#470304
0W
#472012
0;
0$
#472497
0a
#472500
1!
#472654
0M
#472699
0R
#472747
0H
#472783
0?
#472863
0\
#472943
0C
#473096
1<
#474219
08
0*
#476138
04
0&
#476324
06
0(
#476342
03
0%
#476528
1E
#476723
07
0)
#476781
0:
0,
#477097
09
0+
#477119
1I
#477136
1V
#477138
1Q
#477419
05
0'
#477460
1X
#477736
1]
#478461
1b
#482029
1;
1$
#483000
0!
#483761
0<
#483910
b10 #
b110 #
b1110 #
b11110 #
b111110 #
b1111110 #
b11111110 #
b10000 "
b110000 "
b1110000 "
b11110000 "
b11111111 #
b11110001 "
b11110011 "
b11110111 "
b11111111 "
#484504
1=
1L
1Z
1^
1>
1@
1K
1P
1Y
1_
#484506
1A
1D
1O
1U
1G
1S
#485744
1W
#487444
0E
#487659
1a
#487834
1M
#487860
1R
#487876
0Q
#487886
1H
#488010
1C
0I
#488031
1\
#488098
0V
#488125
1?
#488220
0X
#488519
0]
#489283
0b
#489650
18
1*
#491226
14
1&
#491572
16
1(
#491698
13
1%
#491861
17
1)
#491886
1:
1,
#492274
19
1+
#492504
15
1'
#492786
0;
0$
#493500
1!
#494096
1<
#497528
1E
#498119
1I
#498136
1V
#498138
1Q
#498460
1X
#498736
1]
#499461
1b
#499520
b11111101 #
b11111001 #
b11110001 #
b11100001 #
b11000001 #
b10000001 #
b1 #
b11101111 "
b11001111 "
b10001111 "
b1111 "
b0 #
b1110 "
b1100 "
b1000 "
b0 "
#500279
0=
0L
0Z
0^
0>
0@
0K
0P
0Y
0_
#500281
0A
0D
0O
0U
0G
0S
#501791
0W
#503029
1;
1$
#503893
0H
#503978
0R
#504000
0!
#504062
0a
#504065
0C
#504078
0M
#504106
0\
#504251
0?
#504761
0<
#505706
08
0*
#507260
04
0&
#507748
06
0(
#507810
03
0%
#508002
07
0)
#508340
09
0+
#508346
0:
0,
#508444
0E
#508565
05
0'
#509091
0I
#509098
0V
#509102
0Q
#509446
0X
#509745
0]
#510509
0b
#514012
0;
0$
#514500
1!
#515096
1<
#515130
b10 #
b110 #
b1110 #
b11110 #
b111110 #
b1111110 #
b11111110 #
b10000 "
b110000 "
b1110000 "
b11110000 "
b11111111 #
b11110001 "
b11110011 "
b11110111 "
b11111111 "
#515724
1=
1L
1Z
1^
1>
1@
1K
1P
1Y
1_
#515726
1A
1D
1O
1U
1G
1S
#517213
1W
#518528
1E
#519106
1Q
#519113
1H
#519136
1V
#519172
1?
#519197
1R
#519199
1a
#519231
1I
#519261
1M
#519266
1\
#519321
1C
#519428
1X
#519704
1]
#520429
1b
#521119
18
1*
#522537
14
1&
#522745
13
1%
#522999
16
1(
#523198
17
1)
#523426
1:
1,
#523509
19
1+
#523731
15
1'
#523997
1;
1$
#525000
0!
#525761
0<
#529444
0E
#530091
0I
#530098
0V
#530102
0Q
#530446
0X
#530740
b11111101 #
b11111001 #
b11110001 #
b11100001 #
b11000001 #
b10000001 #
b1 #
b11101111 "
b11001111 "
b10001111 "
b1111 "
b0 #
b1110 "
b1100 "
b1000 "
b0 "
#530745
0]
#531499
0=
0L
0Z
0^
0>
0@
0K
0P
0Y
0_
#531501
0A
0D
0O
0U
0G
0S
#531509
0b
#532744
0W
#534937
0a
